<?xml version="1.0" encoding="UTF-8" standalone="no"?>
<!DOCTYPE svg PUBLIC "-//W3C//DTD SVG 1.1//EN"
 "http://www.w3.org/Graphics/SVG/1.1/DTD/svg11.dtd">
<!-- Generated by graphviz version 2.38.0 (20140413.2041)
 -->
<!-- Title: %3 Pages: 1 -->
<svg width="17292pt" height="44pt"
 viewBox="0.00 0.00 17292.44 44.00" xmlns="http://www.w3.org/2000/svg" xmlns:xlink="http://www.w3.org/1999/xlink">
<g id="graph0" class="graph" transform="scale(1 1) rotate(0) translate(4 40)">
<title>%3</title>
<polygon fill="white" stroke="none" points="-4,4 -4,-40 17288.4,-40 17288.4,4 -4,4"/>
<!-- node_12 -->
<g id="node1" class="node"><title>node_12</title>
<ellipse fill="none" stroke="black" cx="77.9931" cy="-18" rx="77.9862" ry="18"/>
<text text-anchor="middle" x="77.9931" y="-14.3" font-family="Times,serif" font-size="14.00">node_12 ~ Normal</text>
</g>
<!-- node_69 -->
<g id="node2" class="node"><title>node_69</title>
<ellipse fill="none" stroke="black" cx="251.993" cy="-18" rx="77.9862" ry="18"/>
<text text-anchor="middle" x="251.993" y="-14.3" font-family="Times,serif" font-size="14.00">node_69 ~ Normal</text>
</g>
<!-- node_27 -->
<g id="node3" class="node"><title>node_27</title>
<ellipse fill="none" stroke="black" cx="425.993" cy="-18" rx="77.9862" ry="18"/>
<text text-anchor="middle" x="425.993" y="-14.3" font-family="Times,serif" font-size="14.00">node_27 ~ Normal</text>
</g>
<!-- node_3 -->
<g id="node4" class="node"><title>node_3</title>
<ellipse fill="none" stroke="black" cx="594.993" cy="-18" rx="73.387" ry="18"/>
<text text-anchor="middle" x="594.993" y="-14.3" font-family="Times,serif" font-size="14.00">node_3 ~ Normal</text>
</g>
<!-- node_19 -->
<g id="node5" class="node"><title>node_19</title>
<ellipse fill="none" stroke="black" cx="763.993" cy="-18" rx="77.9862" ry="18"/>
<text text-anchor="middle" x="763.993" y="-14.3" font-family="Times,serif" font-size="14.00">node_19 ~ Normal</text>
</g>
<!-- node_57 -->
<g id="node6" class="node"><title>node_57</title>
<ellipse fill="none" stroke="black" cx="937.993" cy="-18" rx="77.9862" ry="18"/>
<text text-anchor="middle" x="937.993" y="-14.3" font-family="Times,serif" font-size="14.00">node_57 ~ Normal</text>
</g>
<!-- node_41 -->
<g id="node7" class="node"><title>node_41</title>
<ellipse fill="none" stroke="black" cx="1111.99" cy="-18" rx="77.9862" ry="18"/>
<text text-anchor="middle" x="1111.99" y="-14.3" font-family="Times,serif" font-size="14.00">node_41 ~ Normal</text>
</g>
<!-- node_49 -->
<g id="node8" class="node"><title>node_49</title>
<ellipse fill="none" stroke="black" cx="1285.99" cy="-18" rx="77.9862" ry="18"/>
<text text-anchor="middle" x="1285.99" y="-14.3" font-family="Times,serif" font-size="14.00">node_49 ~ Normal</text>
</g>
<!-- node_96 -->
<g id="node9" class="node"><title>node_96</title>
<ellipse fill="none" stroke="black" cx="1459.99" cy="-18" rx="77.9862" ry="18"/>
<text text-anchor="middle" x="1459.99" y="-14.3" font-family="Times,serif" font-size="14.00">node_96 ~ Normal</text>
</g>
<!-- node_38 -->
<g id="node10" class="node"><title>node_38</title>
<ellipse fill="none" stroke="black" cx="1633.99" cy="-18" rx="77.9862" ry="18"/>
<text text-anchor="middle" x="1633.99" y="-14.3" font-family="Times,serif" font-size="14.00">node_38 ~ Normal</text>
</g>
<!-- node_32 -->
<g id="node11" class="node"><title>node_32</title>
<ellipse fill="none" stroke="black" cx="1807.99" cy="-18" rx="77.9862" ry="18"/>
<text text-anchor="middle" x="1807.99" y="-14.3" font-family="Times,serif" font-size="14.00">node_32 ~ Normal</text>
</g>
<!-- node_10 -->
<g id="node12" class="node"><title>node_10</title>
<ellipse fill="none" stroke="black" cx="1981.99" cy="-18" rx="77.9862" ry="18"/>
<text text-anchor="middle" x="1981.99" y="-14.3" font-family="Times,serif" font-size="14.00">node_10 ~ Normal</text>
</g>
<!-- node_89 -->
<g id="node13" class="node"><title>node_89</title>
<ellipse fill="none" stroke="black" cx="2155.99" cy="-18" rx="77.9862" ry="18"/>
<text text-anchor="middle" x="2155.99" y="-14.3" font-family="Times,serif" font-size="14.00">node_89 ~ Normal</text>
</g>
<!-- node_86 -->
<g id="node14" class="node"><title>node_86</title>
<ellipse fill="none" stroke="black" cx="2329.99" cy="-18" rx="77.9862" ry="18"/>
<text text-anchor="middle" x="2329.99" y="-14.3" font-family="Times,serif" font-size="14.00">node_86 ~ Normal</text>
</g>
<!-- node_2 -->
<g id="node15" class="node"><title>node_2</title>
<ellipse fill="none" stroke="black" cx="2498.99" cy="-18" rx="73.387" ry="18"/>
<text text-anchor="middle" x="2498.99" y="-14.3" font-family="Times,serif" font-size="14.00">node_2 ~ Normal</text>
</g>
<!-- node_58 -->
<g id="node16" class="node"><title>node_58</title>
<ellipse fill="none" stroke="black" cx="2667.99" cy="-18" rx="77.9862" ry="18"/>
<text text-anchor="middle" x="2667.99" y="-14.3" font-family="Times,serif" font-size="14.00">node_58 ~ Normal</text>
</g>
<!-- node_68 -->
<g id="node17" class="node"><title>node_68</title>
<ellipse fill="none" stroke="black" cx="2841.99" cy="-18" rx="77.9862" ry="18"/>
<text text-anchor="middle" x="2841.99" y="-14.3" font-family="Times,serif" font-size="14.00">node_68 ~ Normal</text>
</g>
<!-- node_0 -->
<g id="node18" class="node"><title>node_0</title>
<ellipse fill="none" stroke="black" cx="3010.99" cy="-18" rx="73.387" ry="18"/>
<text text-anchor="middle" x="3010.99" y="-14.3" font-family="Times,serif" font-size="14.00">node_0 ~ Normal</text>
</g>
<!-- node_7 -->
<g id="node19" class="node"><title>node_7</title>
<ellipse fill="none" stroke="black" cx="3175.99" cy="-18" rx="73.387" ry="18"/>
<text text-anchor="middle" x="3175.99" y="-14.3" font-family="Times,serif" font-size="14.00">node_7 ~ Normal</text>
</g>
<!-- node_9 -->
<g id="node20" class="node"><title>node_9</title>
<ellipse fill="none" stroke="black" cx="3340.99" cy="-18" rx="73.387" ry="18"/>
<text text-anchor="middle" x="3340.99" y="-14.3" font-family="Times,serif" font-size="14.00">node_9 ~ Normal</text>
</g>
<!-- node_88 -->
<g id="node21" class="node"><title>node_88</title>
<ellipse fill="none" stroke="black" cx="3509.99" cy="-18" rx="77.9862" ry="18"/>
<text text-anchor="middle" x="3509.99" y="-14.3" font-family="Times,serif" font-size="14.00">node_88 ~ Normal</text>
</g>
<!-- node_18 -->
<g id="node22" class="node"><title>node_18</title>
<ellipse fill="none" stroke="black" cx="3683.99" cy="-18" rx="77.9862" ry="18"/>
<text text-anchor="middle" x="3683.99" y="-14.3" font-family="Times,serif" font-size="14.00">node_18 ~ Normal</text>
</g>
<!-- node_90 -->
<g id="node23" class="node"><title>node_90</title>
<ellipse fill="none" stroke="black" cx="3857.99" cy="-18" rx="77.9862" ry="18"/>
<text text-anchor="middle" x="3857.99" y="-14.3" font-family="Times,serif" font-size="14.00">node_90 ~ Normal</text>
</g>
<!-- node_65 -->
<g id="node24" class="node"><title>node_65</title>
<ellipse fill="none" stroke="black" cx="4031.99" cy="-18" rx="77.9862" ry="18"/>
<text text-anchor="middle" x="4031.99" y="-14.3" font-family="Times,serif" font-size="14.00">node_65 ~ Normal</text>
</g>
<!-- node_59 -->
<g id="node25" class="node"><title>node_59</title>
<ellipse fill="none" stroke="black" cx="4205.99" cy="-18" rx="77.9862" ry="18"/>
<text text-anchor="middle" x="4205.99" y="-14.3" font-family="Times,serif" font-size="14.00">node_59 ~ Normal</text>
</g>
<!-- node_13 -->
<g id="node26" class="node"><title>node_13</title>
<ellipse fill="none" stroke="black" cx="4379.99" cy="-18" rx="77.9862" ry="18"/>
<text text-anchor="middle" x="4379.99" y="-14.3" font-family="Times,serif" font-size="14.00">node_13 ~ Normal</text>
</g>
<!-- node_35 -->
<g id="node27" class="node"><title>node_35</title>
<ellipse fill="none" stroke="black" cx="4553.99" cy="-18" rx="77.9862" ry="18"/>
<text text-anchor="middle" x="4553.99" y="-14.3" font-family="Times,serif" font-size="14.00">node_35 ~ Normal</text>
</g>
<!-- node_81 -->
<g id="node28" class="node"><title>node_81</title>
<ellipse fill="none" stroke="black" cx="4727.99" cy="-18" rx="77.9862" ry="18"/>
<text text-anchor="middle" x="4727.99" y="-14.3" font-family="Times,serif" font-size="14.00">node_81 ~ Normal</text>
</g>
<!-- node_63 -->
<g id="node29" class="node"><title>node_63</title>
<ellipse fill="none" stroke="black" cx="4901.99" cy="-18" rx="77.9862" ry="18"/>
<text text-anchor="middle" x="4901.99" y="-14.3" font-family="Times,serif" font-size="14.00">node_63 ~ Normal</text>
</g>
<!-- node_24 -->
<g id="node30" class="node"><title>node_24</title>
<ellipse fill="none" stroke="black" cx="5075.99" cy="-18" rx="77.9862" ry="18"/>
<text text-anchor="middle" x="5075.99" y="-14.3" font-family="Times,serif" font-size="14.00">node_24 ~ Normal</text>
</g>
<!-- node_93 -->
<g id="node31" class="node"><title>node_93</title>
<ellipse fill="none" stroke="black" cx="5249.99" cy="-18" rx="77.9862" ry="18"/>
<text text-anchor="middle" x="5249.99" y="-14.3" font-family="Times,serif" font-size="14.00">node_93 ~ Normal</text>
</g>
<!-- node_70 -->
<g id="node32" class="node"><title>node_70</title>
<ellipse fill="none" stroke="black" cx="5423.99" cy="-18" rx="77.9862" ry="18"/>
<text text-anchor="middle" x="5423.99" y="-14.3" font-family="Times,serif" font-size="14.00">node_70 ~ Normal</text>
</g>
<!-- node_74 -->
<g id="node33" class="node"><title>node_74</title>
<ellipse fill="none" stroke="black" cx="5597.99" cy="-18" rx="77.9862" ry="18"/>
<text text-anchor="middle" x="5597.99" y="-14.3" font-family="Times,serif" font-size="14.00">node_74 ~ Normal</text>
</g>
<!-- node_66 -->
<g id="node34" class="node"><title>node_66</title>
<ellipse fill="none" stroke="black" cx="5771.99" cy="-18" rx="77.9862" ry="18"/>
<text text-anchor="middle" x="5771.99" y="-14.3" font-family="Times,serif" font-size="14.00">node_66 ~ Normal</text>
</g>
<!-- node_61 -->
<g id="node35" class="node"><title>node_61</title>
<ellipse fill="none" stroke="black" cx="5945.99" cy="-18" rx="77.9862" ry="18"/>
<text text-anchor="middle" x="5945.99" y="-14.3" font-family="Times,serif" font-size="14.00">node_61 ~ Normal</text>
</g>
<!-- node_73 -->
<g id="node36" class="node"><title>node_73</title>
<ellipse fill="none" stroke="black" cx="6119.99" cy="-18" rx="77.9862" ry="18"/>
<text text-anchor="middle" x="6119.99" y="-14.3" font-family="Times,serif" font-size="14.00">node_73 ~ Normal</text>
</g>
<!-- node_71 -->
<g id="node37" class="node"><title>node_71</title>
<ellipse fill="none" stroke="black" cx="6293.99" cy="-18" rx="77.9862" ry="18"/>
<text text-anchor="middle" x="6293.99" y="-14.3" font-family="Times,serif" font-size="14.00">node_71 ~ Normal</text>
</g>
<!-- node_33 -->
<g id="node38" class="node"><title>node_33</title>
<ellipse fill="none" stroke="black" cx="6467.99" cy="-18" rx="77.9862" ry="18"/>
<text text-anchor="middle" x="6467.99" y="-14.3" font-family="Times,serif" font-size="14.00">node_33 ~ Normal</text>
</g>
<!-- node_54 -->
<g id="node39" class="node"><title>node_54</title>
<ellipse fill="none" stroke="black" cx="6641.99" cy="-18" rx="77.9862" ry="18"/>
<text text-anchor="middle" x="6641.99" y="-14.3" font-family="Times,serif" font-size="14.00">node_54 ~ Normal</text>
</g>
<!-- node_45 -->
<g id="node40" class="node"><title>node_45</title>
<ellipse fill="none" stroke="black" cx="6815.99" cy="-18" rx="77.9862" ry="18"/>
<text text-anchor="middle" x="6815.99" y="-14.3" font-family="Times,serif" font-size="14.00">node_45 ~ Normal</text>
</g>
<!-- node_11 -->
<g id="node41" class="node"><title>node_11</title>
<ellipse fill="none" stroke="black" cx="6989.99" cy="-18" rx="77.9862" ry="18"/>
<text text-anchor="middle" x="6989.99" y="-14.3" font-family="Times,serif" font-size="14.00">node_11 ~ Normal</text>
</g>
<!-- node_48 -->
<g id="node42" class="node"><title>node_48</title>
<ellipse fill="none" stroke="black" cx="7163.99" cy="-18" rx="77.9862" ry="18"/>
<text text-anchor="middle" x="7163.99" y="-14.3" font-family="Times,serif" font-size="14.00">node_48 ~ Normal</text>
</g>
<!-- node_5 -->
<g id="node43" class="node"><title>node_5</title>
<ellipse fill="none" stroke="black" cx="7332.99" cy="-18" rx="73.387" ry="18"/>
<text text-anchor="middle" x="7332.99" y="-14.3" font-family="Times,serif" font-size="14.00">node_5 ~ Normal</text>
</g>
<!-- node_28 -->
<g id="node44" class="node"><title>node_28</title>
<ellipse fill="none" stroke="black" cx="7501.99" cy="-18" rx="77.9862" ry="18"/>
<text text-anchor="middle" x="7501.99" y="-14.3" font-family="Times,serif" font-size="14.00">node_28 ~ Normal</text>
</g>
<!-- node_80 -->
<g id="node45" class="node"><title>node_80</title>
<ellipse fill="none" stroke="black" cx="7675.99" cy="-18" rx="77.9862" ry="18"/>
<text text-anchor="middle" x="7675.99" y="-14.3" font-family="Times,serif" font-size="14.00">node_80 ~ Normal</text>
</g>
<!-- node_43 -->
<g id="node46" class="node"><title>node_43</title>
<ellipse fill="none" stroke="black" cx="7849.99" cy="-18" rx="77.9862" ry="18"/>
<text text-anchor="middle" x="7849.99" y="-14.3" font-family="Times,serif" font-size="14.00">node_43 ~ Normal</text>
</g>
<!-- node_94 -->
<g id="node47" class="node"><title>node_94</title>
<ellipse fill="none" stroke="black" cx="8023.99" cy="-18" rx="77.9862" ry="18"/>
<text text-anchor="middle" x="8023.99" y="-14.3" font-family="Times,serif" font-size="14.00">node_94 ~ Normal</text>
</g>
<!-- node_36 -->
<g id="node48" class="node"><title>node_36</title>
<ellipse fill="none" stroke="black" cx="8197.99" cy="-18" rx="77.9862" ry="18"/>
<text text-anchor="middle" x="8197.99" y="-14.3" font-family="Times,serif" font-size="14.00">node_36 ~ Normal</text>
</g>
<!-- node_84 -->
<g id="node49" class="node"><title>node_84</title>
<ellipse fill="none" stroke="black" cx="8371.99" cy="-18" rx="77.9862" ry="18"/>
<text text-anchor="middle" x="8371.99" y="-14.3" font-family="Times,serif" font-size="14.00">node_84 ~ Normal</text>
</g>
<!-- node_37 -->
<g id="node50" class="node"><title>node_37</title>
<ellipse fill="none" stroke="black" cx="8545.99" cy="-18" rx="77.9862" ry="18"/>
<text text-anchor="middle" x="8545.99" y="-14.3" font-family="Times,serif" font-size="14.00">node_37 ~ Normal</text>
</g>
<!-- node_76 -->
<g id="node51" class="node"><title>node_76</title>
<ellipse fill="none" stroke="black" cx="8719.99" cy="-18" rx="77.9862" ry="18"/>
<text text-anchor="middle" x="8719.99" y="-14.3" font-family="Times,serif" font-size="14.00">node_76 ~ Normal</text>
</g>
<!-- node_47 -->
<g id="node52" class="node"><title>node_47</title>
<ellipse fill="none" stroke="black" cx="8893.99" cy="-18" rx="77.9862" ry="18"/>
<text text-anchor="middle" x="8893.99" y="-14.3" font-family="Times,serif" font-size="14.00">node_47 ~ Normal</text>
</g>
<!-- node_50 -->
<g id="node53" class="node"><title>node_50</title>
<ellipse fill="none" stroke="black" cx="9067.99" cy="-18" rx="77.9862" ry="18"/>
<text text-anchor="middle" x="9067.99" y="-14.3" font-family="Times,serif" font-size="14.00">node_50 ~ Normal</text>
</g>
<!-- node_79 -->
<g id="node54" class="node"><title>node_79</title>
<ellipse fill="none" stroke="black" cx="9241.99" cy="-18" rx="77.9862" ry="18"/>
<text text-anchor="middle" x="9241.99" y="-14.3" font-family="Times,serif" font-size="14.00">node_79 ~ Normal</text>
</g>
<!-- node_92 -->
<g id="node55" class="node"><title>node_92</title>
<ellipse fill="none" stroke="black" cx="9415.99" cy="-18" rx="77.9862" ry="18"/>
<text text-anchor="middle" x="9415.99" y="-14.3" font-family="Times,serif" font-size="14.00">node_92 ~ Normal</text>
</g>
<!-- node_4 -->
<g id="node56" class="node"><title>node_4</title>
<ellipse fill="none" stroke="black" cx="9584.99" cy="-18" rx="73.387" ry="18"/>
<text text-anchor="middle" x="9584.99" y="-14.3" font-family="Times,serif" font-size="14.00">node_4 ~ Normal</text>
</g>
<!-- node_40 -->
<g id="node57" class="node"><title>node_40</title>
<ellipse fill="none" stroke="black" cx="9753.99" cy="-18" rx="77.9862" ry="18"/>
<text text-anchor="middle" x="9753.99" y="-14.3" font-family="Times,serif" font-size="14.00">node_40 ~ Normal</text>
</g>
<!-- node_98 -->
<g id="node58" class="node"><title>node_98</title>
<ellipse fill="none" stroke="black" cx="9927.99" cy="-18" rx="77.9862" ry="18"/>
<text text-anchor="middle" x="9927.99" y="-14.3" font-family="Times,serif" font-size="14.00">node_98 ~ Normal</text>
</g>
<!-- node_77 -->
<g id="node59" class="node"><title>node_77</title>
<ellipse fill="none" stroke="black" cx="10102" cy="-18" rx="77.9862" ry="18"/>
<text text-anchor="middle" x="10102" y="-14.3" font-family="Times,serif" font-size="14.00">node_77 ~ Normal</text>
</g>
<!-- node_31 -->
<g id="node60" class="node"><title>node_31</title>
<ellipse fill="none" stroke="black" cx="10276" cy="-18" rx="77.9862" ry="18"/>
<text text-anchor="middle" x="10276" y="-14.3" font-family="Times,serif" font-size="14.00">node_31 ~ Normal</text>
</g>
<!-- node_25 -->
<g id="node61" class="node"><title>node_25</title>
<ellipse fill="none" stroke="black" cx="10450" cy="-18" rx="77.9862" ry="18"/>
<text text-anchor="middle" x="10450" y="-14.3" font-family="Times,serif" font-size="14.00">node_25 ~ Normal</text>
</g>
<!-- node_56 -->
<g id="node62" class="node"><title>node_56</title>
<ellipse fill="none" stroke="black" cx="10624" cy="-18" rx="77.9862" ry="18"/>
<text text-anchor="middle" x="10624" y="-14.3" font-family="Times,serif" font-size="14.00">node_56 ~ Normal</text>
</g>
<!-- node_99 -->
<g id="node63" class="node"><title>node_99</title>
<ellipse fill="none" stroke="black" cx="10798" cy="-18" rx="77.9862" ry="18"/>
<text text-anchor="middle" x="10798" y="-14.3" font-family="Times,serif" font-size="14.00">node_99 ~ Normal</text>
</g>
<!-- node_52 -->
<g id="node64" class="node"><title>node_52</title>
<ellipse fill="none" stroke="black" cx="10972" cy="-18" rx="77.9862" ry="18"/>
<text text-anchor="middle" x="10972" y="-14.3" font-family="Times,serif" font-size="14.00">node_52 ~ Normal</text>
</g>
<!-- node_91 -->
<g id="node65" class="node"><title>node_91</title>
<ellipse fill="none" stroke="black" cx="11146" cy="-18" rx="77.9862" ry="18"/>
<text text-anchor="middle" x="11146" y="-14.3" font-family="Times,serif" font-size="14.00">node_91 ~ Normal</text>
</g>
<!-- node_21 -->
<g id="node66" class="node"><title>node_21</title>
<ellipse fill="none" stroke="black" cx="11320" cy="-18" rx="77.9862" ry="18"/>
<text text-anchor="middle" x="11320" y="-14.3" font-family="Times,serif" font-size="14.00">node_21 ~ Normal</text>
</g>
<!-- node_46 -->
<g id="node67" class="node"><title>node_46</title>
<ellipse fill="none" stroke="black" cx="11494" cy="-18" rx="77.9862" ry="18"/>
<text text-anchor="middle" x="11494" y="-14.3" font-family="Times,serif" font-size="14.00">node_46 ~ Normal</text>
</g>
<!-- node_23 -->
<g id="node68" class="node"><title>node_23</title>
<ellipse fill="none" stroke="black" cx="11668" cy="-18" rx="77.9862" ry="18"/>
<text text-anchor="middle" x="11668" y="-14.3" font-family="Times,serif" font-size="14.00">node_23 ~ Normal</text>
</g>
<!-- node_72 -->
<g id="node69" class="node"><title>node_72</title>
<ellipse fill="none" stroke="black" cx="11842" cy="-18" rx="77.9862" ry="18"/>
<text text-anchor="middle" x="11842" y="-14.3" font-family="Times,serif" font-size="14.00">node_72 ~ Normal</text>
</g>
<!-- node_22 -->
<g id="node70" class="node"><title>node_22</title>
<ellipse fill="none" stroke="black" cx="12016" cy="-18" rx="77.9862" ry="18"/>
<text text-anchor="middle" x="12016" y="-14.3" font-family="Times,serif" font-size="14.00">node_22 ~ Normal</text>
</g>
<!-- node_95 -->
<g id="node71" class="node"><title>node_95</title>
<ellipse fill="none" stroke="black" cx="12190" cy="-18" rx="77.9862" ry="18"/>
<text text-anchor="middle" x="12190" y="-14.3" font-family="Times,serif" font-size="14.00">node_95 ~ Normal</text>
</g>
<!-- node_20 -->
<g id="node72" class="node"><title>node_20</title>
<ellipse fill="none" stroke="black" cx="12364" cy="-18" rx="77.9862" ry="18"/>
<text text-anchor="middle" x="12364" y="-14.3" font-family="Times,serif" font-size="14.00">node_20 ~ Normal</text>
</g>
<!-- node_55 -->
<g id="node73" class="node"><title>node_55</title>
<ellipse fill="none" stroke="black" cx="12538" cy="-18" rx="77.9862" ry="18"/>
<text text-anchor="middle" x="12538" y="-14.3" font-family="Times,serif" font-size="14.00">node_55 ~ Normal</text>
</g>
<!-- node_29 -->
<g id="node74" class="node"><title>node_29</title>
<ellipse fill="none" stroke="black" cx="12712" cy="-18" rx="77.9862" ry="18"/>
<text text-anchor="middle" x="12712" y="-14.3" font-family="Times,serif" font-size="14.00">node_29 ~ Normal</text>
</g>
<!-- node_51 -->
<g id="node75" class="node"><title>node_51</title>
<ellipse fill="none" stroke="black" cx="12886" cy="-18" rx="77.9862" ry="18"/>
<text text-anchor="middle" x="12886" y="-14.3" font-family="Times,serif" font-size="14.00">node_51 ~ Normal</text>
</g>
<!-- node_30 -->
<g id="node76" class="node"><title>node_30</title>
<ellipse fill="none" stroke="black" cx="13060" cy="-18" rx="77.9862" ry="18"/>
<text text-anchor="middle" x="13060" y="-14.3" font-family="Times,serif" font-size="14.00">node_30 ~ Normal</text>
</g>
<!-- node_39 -->
<g id="node77" class="node"><title>node_39</title>
<ellipse fill="none" stroke="black" cx="13234" cy="-18" rx="77.9862" ry="18"/>
<text text-anchor="middle" x="13234" y="-14.3" font-family="Times,serif" font-size="14.00">node_39 ~ Normal</text>
</g>
<!-- node_15 -->
<g id="node78" class="node"><title>node_15</title>
<ellipse fill="none" stroke="black" cx="13408" cy="-18" rx="77.9862" ry="18"/>
<text text-anchor="middle" x="13408" y="-14.3" font-family="Times,serif" font-size="14.00">node_15 ~ Normal</text>
</g>
<!-- node_64 -->
<g id="node79" class="node"><title>node_64</title>
<ellipse fill="none" stroke="black" cx="13582" cy="-18" rx="77.9862" ry="18"/>
<text text-anchor="middle" x="13582" y="-14.3" font-family="Times,serif" font-size="14.00">node_64 ~ Normal</text>
</g>
<!-- node_17 -->
<g id="node80" class="node"><title>node_17</title>
<ellipse fill="none" stroke="black" cx="13756" cy="-18" rx="77.9862" ry="18"/>
<text text-anchor="middle" x="13756" y="-14.3" font-family="Times,serif" font-size="14.00">node_17 ~ Normal</text>
</g>
<!-- node_62 -->
<g id="node81" class="node"><title>node_62</title>
<ellipse fill="none" stroke="black" cx="13930" cy="-18" rx="77.9862" ry="18"/>
<text text-anchor="middle" x="13930" y="-14.3" font-family="Times,serif" font-size="14.00">node_62 ~ Normal</text>
</g>
<!-- node_53 -->
<g id="node82" class="node"><title>node_53</title>
<ellipse fill="none" stroke="black" cx="14104" cy="-18" rx="77.9862" ry="18"/>
<text text-anchor="middle" x="14104" y="-14.3" font-family="Times,serif" font-size="14.00">node_53 ~ Normal</text>
</g>
<!-- node_67 -->
<g id="node83" class="node"><title>node_67</title>
<ellipse fill="none" stroke="black" cx="14278" cy="-18" rx="77.9862" ry="18"/>
<text text-anchor="middle" x="14278" y="-14.3" font-family="Times,serif" font-size="14.00">node_67 ~ Normal</text>
</g>
<!-- node_34 -->
<g id="node84" class="node"><title>node_34</title>
<ellipse fill="none" stroke="black" cx="14452" cy="-18" rx="77.9862" ry="18"/>
<text text-anchor="middle" x="14452" y="-14.3" font-family="Times,serif" font-size="14.00">node_34 ~ Normal</text>
</g>
<!-- node_97 -->
<g id="node85" class="node"><title>node_97</title>
<ellipse fill="none" stroke="black" cx="14626" cy="-18" rx="77.9862" ry="18"/>
<text text-anchor="middle" x="14626" y="-14.3" font-family="Times,serif" font-size="14.00">node_97 ~ Normal</text>
</g>
<!-- node_82 -->
<g id="node86" class="node"><title>node_82</title>
<ellipse fill="none" stroke="black" cx="14800" cy="-18" rx="77.9862" ry="18"/>
<text text-anchor="middle" x="14800" y="-14.3" font-family="Times,serif" font-size="14.00">node_82 ~ Normal</text>
</g>
<!-- node_87 -->
<g id="node87" class="node"><title>node_87</title>
<ellipse fill="none" stroke="black" cx="14974" cy="-18" rx="77.9862" ry="18"/>
<text text-anchor="middle" x="14974" y="-14.3" font-family="Times,serif" font-size="14.00">node_87 ~ Normal</text>
</g>
<!-- node_26 -->
<g id="node88" class="node"><title>node_26</title>
<ellipse fill="none" stroke="black" cx="15148" cy="-18" rx="77.9862" ry="18"/>
<text text-anchor="middle" x="15148" y="-14.3" font-family="Times,serif" font-size="14.00">node_26 ~ Normal</text>
</g>
<!-- node_60 -->
<g id="node89" class="node"><title>node_60</title>
<ellipse fill="none" stroke="black" cx="15322" cy="-18" rx="77.9862" ry="18"/>
<text text-anchor="middle" x="15322" y="-14.3" font-family="Times,serif" font-size="14.00">node_60 ~ Normal</text>
</g>
<!-- node_16 -->
<g id="node90" class="node"><title>node_16</title>
<ellipse fill="none" stroke="black" cx="15496" cy="-18" rx="77.9862" ry="18"/>
<text text-anchor="middle" x="15496" y="-14.3" font-family="Times,serif" font-size="14.00">node_16 ~ Normal</text>
</g>
<!-- node_44 -->
<g id="node91" class="node"><title>node_44</title>
<ellipse fill="none" stroke="black" cx="15670" cy="-18" rx="77.9862" ry="18"/>
<text text-anchor="middle" x="15670" y="-14.3" font-family="Times,serif" font-size="14.00">node_44 ~ Normal</text>
</g>
<!-- node_6 -->
<g id="node92" class="node"><title>node_6</title>
<ellipse fill="none" stroke="black" cx="15839" cy="-18" rx="73.387" ry="18"/>
<text text-anchor="middle" x="15839" y="-14.3" font-family="Times,serif" font-size="14.00">node_6 ~ Normal</text>
</g>
<!-- node_78 -->
<g id="node93" class="node"><title>node_78</title>
<ellipse fill="none" stroke="black" cx="16008" cy="-18" rx="77.9862" ry="18"/>
<text text-anchor="middle" x="16008" y="-14.3" font-family="Times,serif" font-size="14.00">node_78 ~ Normal</text>
</g>
<!-- node_1 -->
<g id="node94" class="node"><title>node_1</title>
<ellipse fill="none" stroke="black" cx="16177" cy="-18" rx="73.387" ry="18"/>
<text text-anchor="middle" x="16177" y="-14.3" font-family="Times,serif" font-size="14.00">node_1 ~ Normal</text>
</g>
<!-- node_75 -->
<g id="node95" class="node"><title>node_75</title>
<ellipse fill="none" stroke="black" cx="16346" cy="-18" rx="77.9862" ry="18"/>
<text text-anchor="middle" x="16346" y="-14.3" font-family="Times,serif" font-size="14.00">node_75 ~ Normal</text>
</g>
<!-- node_14 -->
<g id="node96" class="node"><title>node_14</title>
<ellipse fill="none" stroke="black" cx="16520" cy="-18" rx="77.9862" ry="18"/>
<text text-anchor="middle" x="16520" y="-14.3" font-family="Times,serif" font-size="14.00">node_14 ~ Normal</text>
</g>
<!-- node_83 -->
<g id="node97" class="node"><title>node_83</title>
<ellipse fill="none" stroke="black" cx="16694" cy="-18" rx="77.9862" ry="18"/>
<text text-anchor="middle" x="16694" y="-14.3" font-family="Times,serif" font-size="14.00">node_83 ~ Normal</text>
</g>
<!-- node_42 -->
<g id="node98" class="node"><title>node_42</title>
<ellipse fill="none" stroke="black" cx="16868" cy="-18" rx="77.9862" ry="18"/>
<text text-anchor="middle" x="16868" y="-14.3" font-family="Times,serif" font-size="14.00">node_42 ~ Normal</text>
</g>
<!-- node_85 -->
<g id="node99" class="node"><title>node_85</title>
<ellipse fill="none" stroke="black" cx="17042" cy="-18" rx="77.9862" ry="18"/>
<text text-anchor="middle" x="17042" y="-14.3" font-family="Times,serif" font-size="14.00">node_85 ~ Normal</text>
</g>
<!-- node_8 -->
<g id="node100" class="node"><title>node_8</title>
<ellipse fill="none" stroke="black" cx="17211" cy="-18" rx="73.387" ry="18"/>
<text text-anchor="middle" x="17211" y="-14.3" font-family="Times,serif" font-size="14.00">node_8 ~ Normal</text>
</g>
</g>
</svg>
