,150921,59067,341567,28983,389903,23569,6360,346,441670,5619,401546
0,0.0,0.0,0.0,0.0,0.0,0.0,0.0,0.0,0.0,0.0,0.0
1,0.0,0.0,0.0,0.0,0.0,0.0,0.0,0.0,0.0,0.0,0.0
2,-61.75115659481389,0.0,0.0,0.0,0.0,0.0,0.0,0.0,0.0,0.0,0.0
3,0.0,0.0,0.0,0.0,0.0,0.0,0.0,0.0,0.0,0.0,0.0
4,-183.35204838517575,0.0,0.0,0.0,0.0,0.0,0.0,0.0,0.0,0.0,0.0
5,0.0,0.0,803.9330615263643,0.0,0.0,0.0,0.0,0.0,0.0,0.0,0.0
6,0.0,0.0,0.0,0.0,0.0,0.0,0.0,0.0,0.0,0.0,0.0
7,0.0,0.0,0.0,0.0,459.341198458324,0.0,6.4319381932443775,0.0,0.0,0.0,0.0
8,0.0,128.3209599508341,0.0,0.0,0.0,0.0,-100.0805279235401,0.0,0.0,0.0,0.0
9,0.0,0.0,0.0,216.4389535522855,0.0,149.48736564049148,0.0,0.0,0.0,0.0,0.0
10,-408.95138945562167,0.0,0.0,0.0,0.0,0.0,0.0,0.0,0.0,0.0,0.0
