,79295,442186,140731,390061,79324,389396
0,0.0,0.0,0.0,0.0,0.0,0.0
1,0.0,0.0,0.0,0.0,0.0,0.0
2,-179.09192879408693,466.9074448694955,0.0,0.0,0.0,0.0
3,0.0,0.0,0.0,0.0,0.0,0.0
4,-322.76374974487953,0.0,0.0,0.0,0.0,0.0
5,-275.88711930283534,0.0,0.0,256.4124356366833,0.0,0.0
