,1415,100131902,389152,100293983,100290448,10901,386746
0,0.0,0.0,0.0,0.0,0.0,0.0,0.0
1,0.0,0.0,0.0,0.0,0.0,0.0,0.0
2,0.0,0.0,0.0,0.0,0.0,0.0,0.0
3,-461.681944632428,0.0,0.0,0.0,0.0,0.0,0.0
4,-368.38067248170955,0.0,385.13167944104316,0.0,0.0,0.0,0.0
5,603.3772291151708,0.0,0.0,0.0,0.0,0.0,0.0
6,-473.85056406247077,106.4613596695176,0.0,0.0,0.0,0.0,0.0
