,197,449520,5055,127665,2527,7031,100287891,1638,3046
0,0.0,0.0,0.0,0.0,0.0,0.0,0.0,0.0,0.0
1,0.0,0.0,0.0,0.0,0.0,0.0,0.0,0.0,0.0
2,47.031176269455045,-379.11706936894166,0.0,0.0,0.0,0.0,0.0,0.0,0.0
3,0.0,371.64700853372483,0.0,0.0,0.0,0.0,0.0,0.0,0.0
4,0.0,0.0,0.0,1164.8766244729015,0.0,0.0,0.0,0.0,0.0
5,0.0,131.9342949661484,0.0,0.0,0.0,0.0,0.0,0.0,0.0
6,0.0,0.0,0.0,0.0,0.0,1281.2257880358088,0.0,0.0,0.0
7,0.0,0.0,0.0,0.0,0.0,286.8360770441518,0.0,0.0,0.0
8,-47.47798678988704,0.0,0.0,0.0,0.0,0.0,0.0,0.0,0.0
