,10798,3820,28,23566,8538,7299
0,0.0,0.0,0.0,0.0,0.0,0.0
1,-374.8079677411222,0.0,0.0,0.0,0.0,0.0
2,778.1108950354361,0.0,0.0,0.0,0.0,0.0
3,-258.7433703355423,0.0,0.0,0.0,0.0,0.0
4,-6.324410925708435,0.0,0.0,0.0,0.0,0.0
5,-457.65310322810546,0.0,0.0,0.0,0.0,0.0
