,5630,140578,3110,60482,796,158763,797,80310,79258,56241,60598,6572,10911
0,0.0,0.0,0.0,0.0,0.0,0.0,0.0,0.0,0.0,0.0,0.0,0.0,0.0
1,0.0,0.0,0.0,0.0,0.0,0.0,0.0,0.0,0.0,0.0,0.0,0.0,0.0
2,0.0,0.0,0.0,0.0,0.0,0.0,0.0,0.0,0.0,0.0,0.0,0.0,0.0
3,54.59478627266435,245.41806484075414,0.0,0.0,0.0,0.0,0.0,0.0,0.0,163.60950467313205,0.0,0.0,0.0
4,0.0,0.0,358.44740902850697,0.0,0.0,0.0,0.0,0.0,0.0,0.0,0.0,0.0,0.0
5,0.0,11.263029785301569,0.0,0.0,0.0,0.0,0.0,0.0,0.0,0.0,0.0,0.0,0.0
6,-90.47387782919577,0.0,142.80156491553868,0.0,0.0,0.0,0.0,0.0,0.0,0.0,0.0,0.0,0.0
7,0.0,0.0,0.0,0.0,0.0,465.9824789894883,0.0,0.0,0.0,0.0,0.0,0.0,0.0
8,0.0,15.720204720707443,0.0,0.0,0.0,0.0,0.0,0.0,0.0,382.3797241071202,0.0,0.0,0.0
9,0.0,0.0,0.0,0.0,0.0,0.0,0.0,0.0,0.0,0.0,0.0,0.0,0.0
10,0.0,0.0,0.0,0.0,3857.1479453741754,0.0,0.0,0.0,1948.8848138219198,0.0,0.0,0.0,0.0
11,0.0,0.0,0.0,1082.127522786514,0.0,0.0,0.0,0.0,0.0,0.0,0.0,0.0,0.0
12,-293.48544856903754,0.0,0.0,0.0,0.0,0.0,0.0,0.0,0.0,0.0,0.0,0.0,0.0
