,5778,10846,1996,113146,440193,25770
0,0.0,0.0,-207.86052408739386,0.0,1432.1158573963316,0.0
1,622.4402945170565,0.0,0.0,0.0,0.0,0.0
2,0.0,0.0,0.0,0.0,0.0,0.0
3,0.0,0.0,496.6255121004074,0.0,0.0,0.0
4,0.0,0.0,-42.75249054640585,0.0,0.0,0.0
5,-29.1072126671354,0.0,0.0,0.0,0.0,0.0
