,1690,4879,54112,90293,340120,646658,771,347252,6482,26223
0,0.0,0.0,0.0,0.0,0.0,0.0,0.0,0.0,0.0,0.0
1,0.0,0.0,0.0,0.0,0.0,0.0,0.0,0.0,0.0,0.0
2,0.0,778.7686925387145,0.0,0.0,101.92435048090965,0.0,0.0,0.0,0.0,0.0
3,0.0,0.0,0.0,0.0,810.598112218825,0.0,0.0,0.0,0.0,0.0
4,0.0,0.0,0.0,0.0,0.0,0.0,0.0,0.0,0.0,0.0
5,1576.6294005760071,0.0,1325.6331757433832,970.2363695895499,0.0,0.0,0.0,0.0,0.0,0.0
6,0.0,0.0,0.0,0.0,0.0,1843.9491224788953,0.0,0.0,0.0,0.0
7,0.0,154.48216711607847,0.0,0.0,0.0,0.0,1045.2638271826886,0.0,0.0,0.0
8,0.0,0.0,0.0,-245.57633762103126,0.0,0.0,0.0,0.0,0.0,0.0
9,-311.85440609924376,0.0,0.0,0.0,0.0,0.0,0.0,0.0,0.0,0.0
