,3446,283080,100130667,503614,64806
0,0.0,0.0,0.0,0.0,0.0
1,508.07344052199096,0.0,0.0,0.0,0.0
2,0.0,1679.7389615754873,0.0,0.0,0.0
3,0.0,0.0,361.87748346222725,0.0,0.0
4,-327.2501163107263,0.0,0.0,0.0,0.0
