,G929,G861,G556,G1153,G480,G723,G549,G496,G1054
0,0.0,0.0,0.0,0.0,0.0,0.0,0.0,0.0,33.02088040099761
1,0.0,0.0,0.0,0.0,0.0,12.440038390031532,0.0,0.0,0.0
2,0.0,0.0,0.0,0.0,0.0,0.0,0.0,0.0,18.3944997302342
3,0.0,0.0,0.0,0.0,0.0,0.0,16.883193087117434,0.0,0.0
4,0.0,0.0,0.0,0.0,0.0,0.0,0.0,0.0,11.539924013272412
5,0.0,0.0,0.0,0.0,0.0,0.0,0.0,0.0,0.0
6,0.0,0.0,0.0,0.0,0.0,0.0,0.0,0.0,0.0
7,0.0,0.0,0.0,0.0,0.0,0.0,0.0,0.0,5.380401659968811
8,0.0,26.342844793448876,0.0,0.0,0.0,0.0,15.196070467597565,0.0,0.0
