,G826,G1002,G1334,G1185,G171,G1179,G637,G764,G1436,G1468,G1037,G1200,G916,G580,G389,G357,G428,G233,G635,G576,G219,G1295,G488,G735,G1105,G347,G1344,G724,G1593
0,0.0,0.0,0.0,0.0,0.0,0.0,81.66572887016628,0.0,64.25016946216192,12.83083822530989,0.0,0.0,0.0,0.0,0.0,0.0,0.0,0.0,0.0,0.0,0.0,0.0,0.0,0.0,0.0,0.0,0.0,0.0,0.0
1,0.0,0.0,0.0,0.0,0.0,0.0,0.0,0.0,0.0,0.0,0.0,0.0,0.0,0.0,0.0,0.0,0.0,0.0,0.0,0.0,0.0,0.0,0.0,0.0,0.0,0.0,0.0,0.0,0.0
2,92.83558443971151,0.0,0.0,0.0,0.0,0.0,0.0,10.916637848924893,27.684673384801954,0.0,0.0,0.0,0.0,0.0,0.0,0.0,0.0,0.0,0.0,0.0,0.0,0.0,0.0,0.0,0.0,0.0,0.0,0.0,0.0
3,0.0,27.341631851050806,0.0,0.0,0.0,0.0,0.0,0.0,0.0,13.121126763373923,0.0,0.0,0.0,0.0,0.0,12.404172756431308,0.0,0.0,0.0,0.0,0.0,0.0,0.0,0.0,0.0,0.0,0.0,0.0,0.0
4,0.0,11.424744174945317,0.0,0.0,0.0,0.0,4.08199272615775,0.0,0.0,0.0,1.2434987716806063,0.0,0.0,0.0,67.58211638693501,0.0,0.0,0.0,0.0,0.0,0.0,0.0,0.0,0.0,0.0,0.0,0.0,0.0,0.0
5,87.88928978868125,0.0,0.0,0.0,0.0,0.0,0.0,0.0,0.0,0.0,0.0,42.29131996079741,0.0,0.0,0.0,0.0,0.0,0.0,0.0,0.0,0.0,0.0,0.0,0.0,0.0,0.0,0.0,0.0,0.0
6,0.0,427.61983304717114,0.0,0.0,0.0,0.0,0.0,0.0,0.0,0.0,0.0,0.0,0.0,0.0,0.0,0.0,0.0,0.0,0.0,0.0,0.0,0.0,0.0,0.0,0.0,0.0,0.0,0.0,0.0
7,0.0,0.0,0.0,0.0,32.44533256146269,0.0,29.1331163787263,0.0,0.0,0.0,10.027890832291632,0.0,0.0,0.0,0.0,0.0,0.0,0.0,0.0,0.0,0.0,0.0,0.0,0.0,0.0,0.0,0.0,0.0,0.0
8,0.0,0.0,0.0,0.0,67.64283958434135,0.0,17.397410702670186,10.308636292664232,0.0,0.0,0.0,0.0,0.0,0.0,0.0,0.0,0.0,0.0,0.0,0.0,0.0,0.0,0.0,0.0,0.0,0.0,0.0,0.0,0.0
9,0.0,0.0,0.0,0.0,56.463982962497994,0.0,0.0,25.02545638610991,0.0,0.0,0.0,0.0,0.0,0.0,0.0,0.0,0.0,0.0,0.0,0.0,0.0,0.0,0.0,0.0,0.0,0.0,0.0,0.0,0.0
10,0.0,101.23677120290176,0.0,0.0,0.0,0.0,179.98361627673194,0.0,0.0,0.0,0.0,0.0,0.0,0.0,0.0,0.0,0.0,0.0,0.0,0.0,0.0,0.0,0.0,0.0,0.0,0.0,0.0,0.0,0.0
11,12.643555696304247,0.0,23.569122904482356,0.0,0.0,0.0,0.0,13.311864504298228,0.0,0.0,0.0,0.0,0.0,0.0,0.0,0.0,0.0,0.0,0.0,0.0,0.0,0.0,0.0,0.0,0.0,0.0,0.0,0.0,0.0
12,0.0,34.09863667205809,0.0,0.0,0.0,0.0,0.0,0.0,53.774732177414535,0.0,0.0,0.0,0.0,0.0,47.8989372844444,0.0,0.0,0.0,0.0,0.0,0.0,0.0,0.0,0.0,0.0,0.0,0.0,0.0,0.0
13,0.0,0.0,7.498978594717755,0.0,17.648883093019776,0.0,0.0,0.0,0.0,0.0,0.0,0.0,0.0,0.0,0.0,0.0,0.0,0.0,0.0,0.0,0.0,0.0,0.0,0.0,8.348085384333444,22.951131902986617,0.0,0.0,0.0
14,0.0,0.0,0.0,0.0,0.0,0.0,145.66826209748024,0.0,0.0,0.0,33.19769723511854,0.0,0.0,0.0,0.0,0.0,0.0,0.0,14.245610565633797,0.0,0.0,0.0,0.0,0.0,0.0,0.0,0.0,0.0,0.0
15,0.0,0.0,36.729912818864705,0.0,0.0,0.0,83.28584054280464,0.0,0.0,0.0,0.0,0.0,0.0,0.0,0.0,0.0,0.0,0.0,0.0,0.0,0.0,0.0,0.0,0.0,0.0,0.0,0.0,0.0,0.0
16,0.0,0.0,0.0,0.0,0.0,0.0,0.0,0.0,0.0,0.0,0.0,0.0,0.0,0.0,0.0,0.0,0.0,0.0,0.0,0.0,0.0,0.0,9.810151686848712,15.373792464952203,66.85775190650702,0.0,0.0,0.0,0.0
17,0.0,0.0,16.920092585284237,0.0,0.0,35.19038578044774,0.0,0.0,0.0,0.0,0.0,0.0,0.0,0.0,0.0,0.0,0.0,0.0,0.0,0.0,0.0,0.0,0.0,21.69939441356928,0.0,0.0,0.0,0.0,0.0
18,0.0,0.0,0.0,0.0,0.0,0.0,0.0,0.0,0.0,0.0,333.16636803969186,0.0,0.0,0.0,0.0,0.0,0.0,0.0,0.0,0.0,0.0,0.0,0.0,0.0,0.0,0.0,0.0,0.0,0.0
19,0.0,110.62571649650044,0.0,0.0,0.0,0.0,0.0,0.0,0.0,0.0,0.0,0.0,0.0,0.0,26.99246894173848,0.0,0.0,0.0,0.0,0.0,0.0,0.0,0.0,0.0,0.0,0.0,0.0,0.0,0.0
20,6.983211088751887,0.0,0.0,0.0,0.0,0.0,0.0,0.0,0.0,0.0,0.0,0.0,0.0,27.126667230210842,0.0,0.0,0.0,0.0,0.0,0.0,0.0,0.0,0.0,0.0,0.0,0.0,25.03024947323729,0.0,0.0
21,0.0,23.23846685574472,0.0,11.4656028847794,0.0,0.0,0.0,0.0,0.0,0.0,0.0,0.0,0.0,0.0,0.0,0.0,0.0,0.0,0.0,0.0,0.0,0.0,0.0,0.0,0.0,30.295670635262468,0.0,0.0,0.0
22,11.327593606325536,0.0,0.0,0.0,0.0,0.9692166126246775,42.11495909564201,0.0,0.0,0.0,0.0,0.0,0.0,0.0,0.0,0.0,0.0,0.0,0.0,0.0,0.0,0.0,0.0,0.0,0.0,0.0,0.0,0.0,0.0
23,0.0,0.0,0.0,0.0,0.0,1.5734737578573004,0.0,0.0,0.0,0.0,0.0,23.59688639212709,0.0,0.0,0.0,0.0,0.0,0.0,0.0,0.0,0.0,0.0,0.0,0.0,16.27269131717094,0.0,0.0,0.0,0.0
24,0.0,0.0,0.0,0.0,0.0,121.94089343939413,0.0,0.0,0.0,0.0,0.0,64.57355720513169,0.0,0.0,0.0,0.0,0.0,0.0,0.0,0.0,0.0,0.0,0.0,0.0,0.0,0.0,0.0,0.0,0.0
25,0.0,0.0,0.0,0.0,0.0,0.0,2.2126848271745985,0.0,5.4939718259520305,0.0,0.0,0.0,0.0,0.0,9.426497425348316,0.0,0.0,0.0,2.6214049000191153,0.0,0.0,0.0,0.0,0.0,0.0,0.0,0.0,0.0,0.0
26,0.0,55.83876481740435,0.0,0.0,0.0,0.0,0.0,0.0,16.633885365803962,15.109190043223862,0.0,0.0,0.0,0.0,0.0,0.0,0.0,0.0,0.0,0.0,0.0,0.0,0.0,0.0,0.0,0.0,0.0,0.0,0.0
27,89.0615444448099,0.0,0.0,0.0,0.0,0.0,0.0,0.0,0.0,0.0,0.0,0.0,0.0,0.0,0.0,0.0,0.0,0.0,0.0,36.81165555126972,0.0,0.0,0.0,0.0,0.0,0.0,0.0,0.0,0.0
28,0.0,0.0,0.0,70.63904165475424,0.0,45.52094919944784,0.0,0.0,0.0,0.0,0.0,0.0,0.0,0.0,0.0,0.0,0.0,0.0,0.0,0.0,0.0,0.0,0.0,0.0,0.0,0.0,0.0,0.0,0.0
