,G30,G690,G1455,G90,G812,G35,G1351,G1308,G593,G473,G442,G1576,G143,G1411,G395
0,0.0,18.41815378118963,0.0,0.0,0.0,0.0,0.0,0.0,0.0,0.0,0.0,0.0,0.0,0.0,341.95969237509325
1,0.0,0.0,0.0,0.0,0.0,0.0,0.0,0.0,0.0,0.0,0.0,0.0,0.0,0.0,275.8265627011692
2,0.0,0.0,0.0,0.0,0.0,0.0,7.307537744167803,0.0,102.15937086871782,0.0,0.0,0.0,0.0,0.0,4.021247126811886
3,0.0,0.0,0.0,0.0,0.0,307.32231536377594,19.228558727148993,0.0,0.0,0.0,0.0,0.0,0.0,0.0,0.0
4,0.0,0.0,0.0,0.0,0.0,0.0,0.0,0.0,0.0,0.0,0.0,0.0,29.287453125425145,0.0,42.68828616824112
5,0.0,0.0,0.0,0.0,0.0,0.0,0.0,0.0,0.0,0.0,0.0,0.0,696.9013748858231,0.0,0.0
6,0.0,0.0,0.0,0.0,0.0,0.0,0.0,0.0,0.0,0.0,0.0,0.0,0.0,0.0,0.0
7,0.0,93.0403344298411,0.0,0.0,0.0,0.0,0.0,0.0,0.0,0.0,0.0,0.0,11.415923031197053,0.0,0.0
8,0.0,117.57012773722272,0.0,0.0,116.3472267825482,0.0,0.0,0.0,0.0,0.0,0.0,0.0,0.0,0.0,0.0
9,0.0,0.0,0.0,0.0,47.36722732617227,0.0,0.0,0.0,55.08315625463365,0.0,0.0,0.0,0.0,0.0,0.0
10,0.0,0.0,0.0,0.0,0.0,11.206816651654208,0.0,0.0,0.0,0.0,0.0,0.23769988651383755,0.0,91.01318666988846,0.0
11,0.0,0.0,0.0,0.0,0.0,0.0,0.0,0.0,0.0,0.0,0.0,0.0,0.0,528.2417982973689,0.0
12,0.0,0.0,0.0,0.0,0.0,0.0,0.0,0.0,0.0,0.0,0.0,0.0,0.0,0.0,0.0
13,0.0,0.0,0.0,0.0,0.0,0.0,0.0,0.0,108.62364866084363,0.0,0.0,0.0,0.0,0.0,6.556862209782594
14,0.0,0.0,0.0,0.0,0.0,0.0,51.33147361696547,0.0,0.0,0.0,0.0,0.0,42.31723217017907,0.0,0.0
