,G1224,G1073,G1052,G470,G1026,G1431,G199,G95,G1610,G387,G13,G402,G584,G1106,G1218,G1030,G1374,G1020,G805,G1384,G386,G1237,G1643,G674,G667,G137,G459
0,0.0,1208.9565115661308,0.0,0.0,0.0,0.0,0.0,0.0,0.0,0.0,0.0,30.637746976668495,0.0,0.0,0.0,0.0,0.0,0.0,0.0,0.0,0.0,0.0,0.0,0.0,0.0,0.0,0.0
1,0.0,0.0,0.0,0.0,0.0,0.0,0.0,0.0,0.0,0.0,0.0,155.76270618740136,0.0,0.0,0.0,0.0,0.0,88.58571159434132,0.0,15.924000581030668,0.0,0.0,0.0,0.0,0.0,0.0,0.0
2,0.0,156.84532126787326,0.0,0.0,277.73555142910027,0.0,0.0,0.0,0.0,0.0,0.0,0.0,0.0,0.0,0.0,0.0,0.0,0.0,0.0,0.0,0.0,0.0,0.0,0.0,0.0,0.0,0.0
3,730.0330811141885,0.0,0.0,0.0,0.0,0.0,0.0,0.0,0.0,0.0,0.0,158.258445276977,0.0,0.0,3.12792690228207,0.0,0.0,0.0,0.0,0.0,0.0,0.0,0.0,0.0,0.0,0.0,0.0
4,0.0,1339.7521137955946,0.0,0.0,0.0,0.0,0.0,0.0,0.0,0.0,0.0,50.368067641475136,0.0,0.0,0.0,0.0,0.0,0.0,0.0,0.0,0.0,0.0,0.0,0.0,0.0,0.0,0.0
5,56.3345831799752,0.0,0.0,17.398343594483777,0.0,0.0,0.0,0.0,0.0,0.0,0.0,0.0,0.0,31.947310952151383,0.0,0.0,0.0,0.0,0.0,0.0,0.0,0.0,0.0,0.0,0.0,0.0,0.0
6,0.0,0.0,0.0,318.2733005969453,0.0,0.0,0.0,16.365749379759563,0.0,0.0,0.0,0.0,0.0,0.0,0.0,0.0,0.0,0.0,0.0,0.0,0.0,0.0,0.0,0.0,0.0,0.0,0.0
7,0.0,0.0,0.0,916.3169539330879,0.0,0.0,0.0,0.0,0.0,0.0,0.0,0.0,0.0,0.0,0.0,0.0,0.0,0.0,0.0,0.0,0.0,0.0,0.0,0.0,0.0,0.0,0.0
8,0.0,0.0,373.0636370213333,0.0,0.0,0.0,0.0,0.0,0.0,24.28474873352934,0.0,0.0,0.0,0.0,0.0,0.0,0.0,0.0,0.0,0.0,0.0,0.0,0.0,0.0,0.0,0.0,0.0
9,0.0,0.0,0.0,0.0,0.0,0.0,0.0,0.0,0.0,0.0,0.0,0.0,0.0,0.0,0.0,0.0,0.0,0.0,0.0,0.0,0.0,0.0,0.0,0.0,0.0,0.0,0.0
10,0.0,0.0,0.0,0.0,0.0,0.0,0.0,0.0,0.0,40.61207295565373,0.0,0.0,25.19338261360008,0.0,0.0,0.0,-16.4154108281532,0.0,0.0,-8.895821319787046,0.0,0.0,-8.923399463061742,66.33184680875502,0.0,0.0,0.0
11,0.0,0.0,0.0,0.0,0.0,0.0,0.0,0.0,0.0,0.0,0.0,0.0,0.0,0.0,117.4134335079516,0.0,0.0,0.0,0.0,0.0,0.0,0.0,0.0,0.0,0.0,0.0,0.0
12,0.0,0.0,0.0,0.0,0.0,0.0,0.0,0.0,0.0,256.6749245445385,0.0,0.0,0.0,0.0,0.0,0.0,0.0,0.0,0.0,0.0,0.0,0.0,0.0,0.0,0.0,0.0,0.0
13,0.0,29.70061601232692,0.0,141.4775440303083,0.0,0.0,0.0,47.282754124719304,0.0,0.0,0.0,12.240295272100866,0.0,0.0,0.0,0.0,0.0,0.0,0.0,0.0,0.0,0.0,0.0,0.0,0.0,0.0,0.0
14,0.0,0.0,0.0,0.0,0.0,0.0,0.0,0.0,0.0,0.0,0.0,0.0,0.0,0.0,0.0,0.0,0.0,0.0,0.0,0.0,0.0,0.0,0.0,0.0,50.51947649689919,24.12753978469982,0.0
15,0.0,0.0,0.0,0.0,0.0,0.0,0.0,0.0,0.0,0.0,256.35995526645456,0.0,0.0,0.0,0.0,0.0,0.0,0.0,54.965174142659635,0.0,0.0,0.0,0.0,0.0,0.0,0.0,0.0
16,0.0,0.0,0.0,0.0,0.0,0.0,0.0,0.0,0.0,183.81318465800405,0.0,0.0,0.0,0.0,0.0,0.0,0.0,0.0,0.0,0.0,0.0,0.0,0.0,0.0,0.0,0.0,0.0
17,0.0,0.0,0.0,0.0,0.0,0.0,0.0,0.0,0.0,0.0,0.0,167.53466045465257,0.0,0.0,0.0,0.0,0.0,0.0,0.0,0.0,0.0,0.0,0.0,0.0,0.0,0.0,0.0
18,0.0,0.0,0.0,0.0,0.0,0.0,0.0,0.0,0.0,91.74722070674534,56.24112641698457,0.0,0.0,0.0,0.0,0.0,0.0,0.0,0.0,0.0,0.0,0.0,0.0,0.0,0.0,0.0,0.0
19,0.0,0.0,0.0,0.0,0.0,0.0,0.0,0.0,0.0,0.0,0.0,0.0,0.0,0.0,0.0,0.0,0.0,0.0,0.0,0.0,0.0,0.0,0.0,0.0,0.0,0.0,0.0
20,0.0,0.0,0.0,0.0,0.0,0.0,0.0,0.0,0.0,0.0,0.0,0.0,0.0,0.0,0.0,135.13056044472114,0.0,0.0,0.0,0.7239422670290878,0.0,0.0,0.0,0.0,0.0,167.69721932030825,0.0
21,0.0,0.0,0.0,0.0,0.0,23.374358019267675,0.0,0.0,0.0,0.0,0.0,0.0,0.0,0.0,0.0,307.35967904924337,0.0,0.0,0.0,0.0,0.0,0.0,0.0,0.0,0.0,0.0,0.0
22,0.0,0.0,0.0,0.0,0.0,0.0,0.0,0.0,0.0,196.8480094984452,0.0,0.0,0.0,0.0,0.0,0.0,0.0,0.0,0.0,0.0,0.0,0.0,0.0,0.0,0.0,0.0,0.0
23,0.0,0.0,0.0,0.0,0.0,0.0,0.0,0.0,0.0,231.4036806263548,0.0,0.0,0.0,0.0,0.0,0.0,0.0,0.0,0.0,0.0,0.0,0.0,0.0,0.0,0.0,0.0,0.0
24,0.0,0.0,0.0,0.0,0.0,0.0,0.0,0.0,0.0,0.0,0.0,0.0,0.0,0.0,0.0,24.336490766481347,0.0,0.0,0.0,518.1339037124421,90.103641183342,0.0,0.0,0.0,0.0,0.0,0.0
25,0.0,0.0,0.0,0.0,0.0,0.0,0.0,0.0,0.0,0.0,0.0,0.0,0.0,0.0,0.0,500.83443045626245,0.0,0.0,0.0,0.0,0.0,0.0,0.0,24.47688399029812,0.0,0.0,0.0
26,0.0,422.1892074595189,0.0,0.0,0.0,0.0,0.0,0.0,0.0,53.121616041603374,34.14031777235823,0.0,0.0,0.0,0.0,0.0,0.0,0.0,0.0,0.0,0.0,0.0,0.0,0.0,0.0,0.0,0.0
