,G183,G450,G311,G1241,G494,G932,G408,G711,G707,G163,G581,G522
0,0.0,0.0,0.0,0.0,0.0,0.0,0.0,0.0,0.0,0.0,0.0,0.0
1,173.75392776499257,0.0,0.0,0.0,0.0,0.0,0.0,0.0,-4.361135979813753,0.0,0.0,41.09245525140204
2,0.0,0.0,0.0,0.0,0.0,17.53889076411724,0.0,0.0,0.0,431.0674874273668,0.0,0.0
3,0.0,0.0,0.0,0.0,0.0,27.1928317430652,0.0,62.79433618742223,0.0,8.253463841721441,0.0,0.0
4,0.0,0.0,0.0,0.0,0.0,0.0,45.259561578250896,0.0,68.04211014708494,0.0,0.0,0.0
5,0.0,0.0,0.0,0.0,0.0,0.0,0.0,0.0,0.0,0.0,0.0,61.81599047509462
6,0.0,0.0,0.0,0.0,0.0,0.0,0.0,0.0,0.0,0.0,0.0,51.834381192649744
7,0.0,0.0,34.661736034042406,0.0,0.0,0.0,100.8553703332691,0.0,0.0,0.0,0.0,0.0
8,0.0,0.0,0.0,0.0,0.0,0.0,0.0,0.0,0.0,0.0,0.0,0.0
9,12.183463830158871,0.0,0.0,0.0,0.0,0.0,164.80907146059417,0.0,0.0,0.0,0.0,0.0
10,0.0,40.60592485427469,0.0,0.0,0.0,0.02143125326529116,0.0,0.0,0.0,0.0,0.0,0.0
11,443.1820162210588,0.0,0.0,0.0,0.0,0.0,0.0,0.0,0.0,0.0,0.0,0.0
