,G741,G26,G1299,G623,G1303,G544,G1549,G292,G1457,G664,G1116,G678,G554,G1107,G911,G369,G850,G1011,G1604,G647
0,0.0,0.0,0.0,0.0,0.0,0.0,0.0,0.0,0.0,0.0,21.58494560468489,0.0,0.0,0.0,0.0,0.0,0.0,0.0,58.30735506436531,0.0
1,661.5178274831492,0.0,0.0,0.0,0.0,0.0,0.0,9.027299345167648,0.0,0.0,0.0,0.0,0.0,0.0,0.0,0.0,0.0,0.0,0.0,0.0
2,119.02936645246973,2.223778332074289,0.0,0.0,0.0,0.0,0.0,0.0,0.0,0.0,0.0,0.0,0.0,0.0,0.0,0.0,0.0,0.0,0.0,0.0
3,0.0,90.9005294150852,147.61081466227824,0.0,0.0,0.0,0.0,0.0,0.0,0.0,0.0,0.0,0.0,0.0,0.0,0.0,0.0,0.0,0.0,0.0
4,0.0,38.090109134140675,0.0,0.0,0.0,0.0,0.0,0.0,0.0,0.0,9.78749072796154,0.0,0.0,0.0,0.0,0.0,0.0,0.0,0.0,0.0
5,53.46049530224127,0.0,0.0,0.0,0.0,0.0,0.0,0.0,0.0,0.0,0.0,0.0,0.0,0.0,0.0,0.0,0.0,0.0,0.0,0.0
6,0.0,0.0,0.0,0.0,0.0,0.0,0.0,0.0,0.0,0.0,0.0,0.0,0.0,0.0,0.0,0.0,0.0,0.0,0.0,42.124914692012226
7,0.0,0.0,0.0,0.0,0.0,0.0,0.0,0.0,12.247270716505227,0.0,0.0,0.0,0.0,0.0,0.0,0.0,0.0,0.0,5.520950353435637,0.0
8,43.447370138153474,0.0,0.0,0.0,0.0,0.0,0.0,0.0,0.0,0.0,0.0,0.0,0.0,0.0,0.0,0.0,0.0,0.0,0.0,0.0
9,0.0,0.0,0.0,0.0,6.6409580116501274,0.0,0.0,0.0,0.0,0.0,11.881657062810518,0.0,0.0,0.0,0.0,0.0,0.0,0.0,0.0,0.0
10,0.0,0.0,0.0,0.0,0.0,0.0,0.0,0.0,0.0,0.0,0.0,0.0,0.0,63.63476488026754,0.0,0.0,0.0,0.0,0.0,0.0
11,0.0,0.0,0.0,0.0,0.0,0.0,0.0,0.0,0.0,2.113557247130757,0.0,0.0,0.0,0.0,0.0,0.0,20.691886924888422,0.0,0.0,0.0
12,0.0,0.0,0.0,0.0,0.0,0.0,0.0,0.0,0.0,0.0,0.0,0.0,0.0,0.0,0.0,0.0,0.0,0.0,0.0,26.92935163803031
13,0.0,0.0,0.0,0.0,0.0,0.0,0.0,0.0,0.0,0.0,0.0,0.0,0.0,0.0,0.0,0.0,0.0,0.0,0.0,0.0
14,0.0,0.0,0.0,0.0,0.0,0.0,0.0,0.0,0.0,0.0,0.0,0.0,18.51996932414704,0.0,0.0,0.0,0.0,78.50797099901001,0.0,0.0
15,0.0,0.0,0.0,0.0,0.0,0.0,0.0,19.64463920911112,0.0,0.0,0.0,0.0,0.0,9.258980769983282,0.0,0.0,0.0,0.0,0.0,0.0
16,0.0,0.0,0.0,0.0,0.0,0.0,0.0,0.0,0.0,20.088573813858602,0.0,0.0,0.0,0.0,0.0,0.0,0.0,0.0,0.0,0.0
17,0.0,9.802725835761976,0.0,0.0,0.0,0.0,0.0,0.0,0.0,0.0,0.0,0.0,0.0,0.0,0.0,0.0,0.0,0.0,0.0,0.0
18,0.0,0.0,0.0,0.0,0.0,0.0,0.0,0.0,0.0,0.0,0.0,0.0,0.0,0.0,0.0,0.0,0.0,0.0,0.0,0.0
19,388.56643398723145,0.0,0.0,0.0,0.0,0.0,0.0,0.0,0.0,0.0,0.0,0.0,0.0,0.0,0.0,6.188836097829608,10.879185807537397,0.0,0.0,0.0
