,G630,G789,G404,G680,G1353,G9,G1144,G761,G1135,G101,G1378,G1316,G151,G1570,G286,G666
0,0.0,0.0,0.0,0.0,0.0,0.0,0.0,0.0,0.0,0.0,5.7600223849754,0.0,0.0,0.0,0.0,10.878868884841722
1,0.0,0.0,0.0,0.0,0.0,0.0,0.0,0.0,0.0,0.0,0.0,0.0,0.0,0.0,31.40819886327745,3.8145927604609824
2,56.381886000446684,0.0,0.0,0.0,0.0,0.0,0.0,0.0,0.0,14.276625861793491,0.0,0.0,0.0,0.0,0.0,0.0
3,0.0,0.0,27.144926060730995,0.0,0.0,0.0,0.0,0.0,0.0,0.0,0.0,0.0,0.0,0.0,0.0,0.0
4,18.657891434664634,0.0,5.53858321544385,0.0,0.0,0.0,0.0,0.0,0.0,0.0,0.0,0.0,0.0,0.0,0.0,0.0
5,0.0,0.0,0.0,0.0,0.0,0.0,0.0,0.0,0.0,0.0,0.0,0.0,0.0,0.0,0.0,8.797430276211799
6,0.0,0.0,0.0,0.0,0.0,0.0,0.0,0.0,0.0,0.0,0.0,0.0,0.0,0.0,0.0,8.396575737423973
7,0.0,0.0,0.0,0.0,0.0,0.0,0.0,0.0,0.0,0.0,0.0,0.0,756.7715087719866,0.0,0.0,0.0
8,0.0,0.0,0.0,0.0,0.0,0.0,0.0,0.0,0.0,0.0,0.0,0.0,0.0,0.0,0.0,0.0
9,0.0,0.0,0.0,0.0,0.0,15.725879994491152,0.0,0.0,0.0,0.0,0.0,0.0,0.0,19.32395507190313,0.0,0.0
10,0.0,0.0,0.0,0.0,0.0,0.0,0.0,0.0,0.0,0.0,0.0,0.0,0.0,0.0,0.0,0.0
11,0.0,0.0,0.0,0.0,0.0,0.0,0.0,0.0,0.0,0.0,67.53997610309125,0.0,0.0,16.924903913421076,0.0,0.0
12,0.0,0.0,0.0,0.0,0.0,118.2222516966608,0.0,0.0,0.0,0.0,0.0,0.0,0.0,0.0,0.0,0.0
13,0.0,0.0,0.0,0.0,0.0,0.0,0.0,0.0,0.0,0.0,0.0,0.0,0.0,0.0,0.0,0.0
14,0.0,0.0,0.0,0.0,0.0,9.306537139206284,0.0,0.0,0.0,0.0,0.0,0.0,0.0,0.0,0.0,0.0
15,0.0,0.0,0.0,0.0,0.0,0.0,0.0,0.0,0.0,0.0,12.300155606316366,0.0,0.0,10.635128080416052,0.0,0.0
