,G604,G1102,G100,G6,G589,G517,G1271,G221,G1594,G774,G1426,G1335,G606,G155,G116,G35,G948,G60,G1233,G1506,G137,G842,G864,G1554,G673
0,0.0,0.0,0.0,84.79298306799728,48.81270497062178,0.0,0.0,0.0,0.0,0.0,0.0,11.318272954299573,0.0,0.0,0.0,40.93400570524864,0.0,0.0,0.0,0.0,0.0,0.0,0.0,0.0,0.0
1,56.799844336658225,0.0,15.312557286522406,0.0,0.0,0.0,0.0,0.0,0.0,0.0,0.0,0.0,0.0,0.0,0.0,4.996797791523477,0.0,0.0,0.0,0.0,0.0,0.0,0.0,0.0,35.851364079482664
2,84.07786079022708,0.0,0.0,0.0,0.0,0.0,0.0,0.0,0.0,0.0,0.0,0.0,0.0,0.0,0.0,0.0,0.0,0.0,0.0,0.0,0.0,0.0,0.0,0.0,127.68552132875448
3,0.0,0.0,0.0,0.0,53.1890107916206,0.0,0.0,100.37213108888773,0.0,0.0,0.0,0.0,12.612064737599667,0.0,0.0,0.0,0.0,0.0,0.0,0.0,0.0,0.0,0.0,0.0,0.0
4,0.0,0.0,0.0,0.0,0.0,0.0,0.0,724.7925816235229,0.0,0.0,0.0,0.0,0.0,0.0,0.0,-23.158747553807643,0.0,0.0,0.0,0.0,0.0,0.0,0.0,0.0,0.0
5,0.0,0.0,0.0,12.429503665265202,53.236902199465476,0.0,0.0,64.00537319505338,0.0,0.0,0.0,0.0,0.0,0.0,0.0,0.0,0.0,0.0,0.0,0.0,0.0,0.0,0.0,0.0,0.0
6,18.783387038678484,0.0,0.0,0.0,0.0,0.0,0.0,61.273397521600145,0.0,43.784397104177515,0.0,0.0,0.0,0.0,0.0,0.0,0.0,0.0,0.0,0.0,0.0,0.0,0.0,0.0,0.0
7,0.0,0.0,0.0,0.0,0.0,0.0,0.0,0.0,0.0,0.0,0.0,0.0,0.0,0.0,0.0,0.0,0.0,0.0,0.0,0.0,0.0,0.0,0.0,0.0,0.0
8,0.0,175.4497684594253,0.0,0.0,0.0,0.0,0.0,0.0,0.0,0.0,0.0,69.64606982592704,0.0,0.0,0.0,0.0,0.0,0.0,0.0,0.0,0.0,0.0,0.0,0.0,0.0
9,0.0,185.37604917486306,0.0,0.0,0.0,0.0,0.0,0.0,0.0,0.0,0.0,0.0,0.0,0.0,0.0,0.0,0.0,0.0,0.0,0.0,0.0,0.0,0.0,0.0,0.0
10,0.0,0.0,0.0,0.0,0.0,0.0,0.0,695.2972349370439,0.0,0.0,0.0,0.0,0.0,0.0,0.0,0.0,0.0,0.0,0.0,0.0,0.0,0.0,0.0,0.0,0.0
11,0.0,0.0,0.0,0.0,0.0,78.44236579955395,0.0,0.0,0.0,0.0,0.0,0.0,0.0,0.0,0.0,0.0,0.0,0.0,0.0,0.0,267.2475379605971,0.0,0.0,0.0,0.0
12,0.0,0.0,0.0,0.0,0.0,0.0,0.0,64.21208961120101,0.0,0.0,12.977961317913923,0.0,0.0,0.0,26.676050868915354,0.0,0.0,0.0,0.0,0.0,0.0,0.0,0.0,0.0,0.0
13,15.701997842694254,0.0,0.0,0.0,0.0,0.0,0.0,5.978965227103345,0.0,0.0,0.0,0.0,0.0,0.0,0.0,0.0,0.0,0.0,0.0,0.0,0.0,0.0,0.0,0.0,0.0
14,0.0,0.0,0.0,0.0,0.0,0.0,0.0,31.75566698020475,0.0,0.0,30.24622776387241,0.0,0.0,0.0,0.0,0.0,0.0,0.0,0.0,0.0,25.90603757790086,0.0,0.0,0.0,0.0
15,0.0,0.0,0.0,0.0,0.0,0.0,0.0,0.0,0.0,0.0,0.0,0.0,0.0,0.0,0.0,0.0,0.0,0.0,0.0,0.0,0.0,0.0,0.0,0.0,0.0
16,43.294904158746704,0.0,0.0,0.0,0.0,0.0,0.0,0.0,0.0,0.0,0.0,0.0,0.0,0.0,0.0,0.0,0.0,0.0,0.0,0.0,23.429902743233015,0.0,0.0,0.0,0.0
17,0.0,0.0,30.611023276562264,0.0,0.0,15.387090812725091,0.0,0.0,0.0,0.0,0.0,0.0,0.0,0.0,0.0,0.0,0.0,0.0,0.0,0.0,0.0,0.0,0.0,0.0,0.0
18,0.0,0.0,0.0,0.0,0.0,0.0,0.0,0.0,0.0,0.0,0.0,0.0,0.0,0.0,0.0,0.0,0.0,0.0,0.0,302.9498037928611,0.0,0.0,0.0,17.201451233024727,0.0
19,0.0,6.110671905420077,0.0,0.0,0.0,0.0,0.0,0.0,0.0,0.0,0.0,0.0,0.0,0.0,0.0,85.92131691623717,0.0,0.0,0.0,0.0,0.0,0.0,0.0,0.0,0.0
20,0.0,0.0,0.0,0.0,0.0,0.0,0.0,240.43710235847084,0.0,0.0,0.0,0.0,0.0,0.0,0.0,0.0,0.0,0.0,0.0,0.0,0.0,0.0,0.0,0.0,0.0
21,0.0,0.0,0.0,59.118140268205934,0.0,0.0,0.0,0.0,0.0,0.0,0.0,0.0,0.0,13.189092734109636,0.0,0.0,0.0,0.0,0.0,0.0,0.0,0.0,0.0,0.0,0.0
22,0.0,0.0,0.0,0.0,0.0,0.0,0.0,0.0,0.0,0.0,0.0,0.0,0.0,0.0,0.0,0.0,0.0,0.0,0.0,0.0,0.0,0.0,0.0,0.0,79.79306114576366
23,0.0,0.0,0.0,0.0,0.0,0.0,0.0,0.0,0.0,0.0,0.0,93.21915395576025,0.0,0.0,0.0,0.0,15.435321225926145,0.0,0.0,0.0,0.0,0.0,0.0,0.0,0.0
24,988.0287827687298,0.0,0.0,0.0,0.0,0.0,0.0,0.0,0.0,0.0,0.0,0.0,0.0,0.0,0.0,0.0,0.0,0.0,0.0,0.0,0.0,0.0,0.0,0.0,0.0
