,G909,G83,G1269,G885,G1627,G976,G591,G705,G1127,G247,G471,G1454,G498,G1453,G192,G521,G511,G121,G774,G875,G1361,G10,G398,G777,G819,G68
0,0.0,0.0,0.0,0.0,0.0,0.0,0.0,756.458101885502,0.0,0.0,6.069699596296232,0.0,0.0,0.0,0.0,0.0,27.799249283228164,0.0,0.0,0.0,0.0,0.0,0.0,0.0,0.0,0.0
1,114.6720920723792,0.0,0.0,0.0,52.471921552573804,0.0,0.0,0.0,0.0,0.0,0.0,0.0,0.0,0.0,0.0,0.0,0.0,0.0,0.0,0.0,0.0,0.0,0.0,0.0,0.0,0.0
2,0.0,0.0,0.0,0.0,0.0,0.0,0.0,0.0,0.0,0.0,0.0,0.0,0.0,0.0,0.0,0.0,0.0,0.0,0.0,68.62178766908573,0.0,0.0,0.0,0.0,0.0,149.37498844232869
3,0.0,27.134458789166274,0.0,0.0,0.0,0.0,0.0,0.0,0.0,75.63866019449506,0.0,0.0,0.0,0.0,0.0,0.0,0.0,0.0,0.0,0.0,0.0,0.0,0.0,0.0,0.0,35.99307930137047
4,499.97504222315865,0.0,0.0,0.0,0.0,0.0,0.0,0.0,0.0,0.0,0.0,0.0,0.0,0.0,0.0,0.0,0.0,0.0,0.0,0.0,0.0,0.0,0.0,0.0,0.0,0.0
5,0.0,0.0,0.0,0.0,0.0,0.0,10.534654638845495,0.0,0.0,0.0,26.117834993728138,0.0,0.0,0.0,0.0,0.0,0.0,0.0,0.0,9.25174092405723,0.0,0.0,0.0,0.0,0.0,0.0
6,0.0,144.95685910559132,0.0,0.0,0.0,0.0,0.0,124.41409831549117,0.0,0.0,0.0,0.0,0.0,0.0,0.0,0.0,0.0,0.0,0.0,0.0,0.0,0.0,0.0,0.0,0.0,0.0
7,0.0,0.0,0.0,0.0,0.0,0.0,0.0,0.0,0.0,0.0,0.0,0.0,0.0,0.0,0.0,15.376369923951643,0.0,0.0,0.0,0.0,0.0,0.0,0.0,0.0,199.2920582107431,0.0
8,0.0,0.0,57.253575021605684,0.0,0.0,42.97057059958843,0.0,0.0,0.0,0.0,0.0,0.0,0.0,0.0,0.0,0.0,0.0,0.0,0.0,0.0,0.0,0.0,0.0,0.0,0.0,0.0
9,0.0,250.9414946905449,0.0,0.0,0.0,0.0,0.0,0.0,0.0,0.0,0.0,0.0,0.0,0.0,0.0,0.0,0.0,0.0,0.0,0.0,0.0,0.0,0.0,0.0,0.0,0.0
10,0.0,0.0,0.0,0.0,0.0,0.0,0.0,0.0,0.0,0.0,0.0,0.0,0.0,0.0,0.0,6.589335559315259,20.477066044840285,0.0,0.0,0.0,0.0,0.0,0.0,0.0,0.0,0.0
11,355.05715709459355,0.0,0.0,0.0,0.0,0.0,0.0,0.0,0.0,0.0,0.0,0.0,0.0,0.0,0.0,0.0,0.0,0.0,0.0,0.0,0.0,0.0,0.0,0.0,0.0,0.0
12,0.0,0.0,0.0,0.0,0.0,0.0,0.0,0.0,0.0,7.495510801493765,0.0,0.0,0.0,0.0,0.0,0.0,0.0,0.0,0.0,65.28326708918758,0.0,557.3908342229429,0.0,0.0,0.0,0.0
13,0.0,0.0,0.0,0.0,0.0,0.0,0.0,0.0,0.0,0.0,0.0,0.0,0.0,0.0,0.0,0.0,0.0,83.15018121300545,0.0,0.0,0.0,0.0,0.0,0.0,0.0,0.0
14,0.0,0.0,0.0,0.0,0.0,0.0,0.0,0.0,0.0,0.0,0.0,0.0,0.0,0.0,0.0,0.0,36.64462212349099,0.0,0.0,0.0,0.0,0.0,0.0,0.0,0.0,27.801543856571243
15,0.0,0.0,0.0,0.0,0.0,0.0,0.0,0.0,0.0,0.0,0.0,0.0,0.0,0.0,0.0,0.0,0.0,0.0,0.0,0.0,0.0,0.0,0.0,0.0,0.0,0.0
16,0.0,0.0,0.0,0.0,0.0,0.0,0.0,0.0,0.0,0.0,0.0,0.0,0.0,0.0,0.0,0.0,0.0,0.0,0.0,166.6578474253497,0.0,0.0,0.0,0.0,8.946029001130228,0.0
17,0.0,0.0,0.0,0.0,0.0,0.0,0.0,0.0,0.0,0.8998505580475467,0.0,0.0,0.0,0.0,0.0,0.0,0.0,0.0,0.0,118.59500370418527,0.0,0.0,0.0,0.0,0.0,0.0
18,102.82967960546148,0.0,0.0,0.0,0.0,0.0,0.0,0.0,0.0,0.0,0.0,0.0,0.0,0.0,0.0,0.0,0.0,0.0,0.0,0.0,0.0,0.0,0.0,0.0,0.0,0.0
19,0.0,0.0,0.0,0.0,0.0,0.0,0.0,0.0,0.0,0.0,0.0,0.0,0.0,0.0,0.0,0.0,0.0,0.0,0.0,0.0,0.0,0.0,0.0,0.0,0.0,0.0
20,0.0,28.70572914310287,0.0,0.0,0.0,0.0,0.0,0.0,0.0,0.0,0.0,0.0,0.0,0.0,0.0,0.0,0.0,0.0,0.0,0.0,0.0,0.0,0.0,0.0,0.0,0.0
21,0.0,0.0,0.0,0.0,0.0,0.0,0.0,0.0,0.0,0.0,0.0,0.0,0.0,0.0,0.0,0.0,0.0,689.7046036060269,0.0,0.0,0.0,0.0,0.0,0.0,0.0,0.0
22,0.0,0.0,0.0,32.49258080851041,0.0,0.0,0.0,0.0,0.0,0.0,8.186646057552025,0.0,0.0,0.0,0.0,0.0,19.156546604559935,0.0,0.0,0.0,0.0,0.0,0.0,0.0,0.0,0.0
23,0.0,0.0,0.0,0.0,0.0,0.0,0.0,0.0,0.0,0.0,0.0,0.0,0.0,0.0,0.0,0.0,0.0,0.0,0.0,0.0,0.0,0.0,0.0,0.0,0.0,38.0573591587422
24,0.0,0.0,0.0,0.0,0.0,0.0,0.0,0.0,0.0,0.0,0.0,0.0,0.0,0.0,0.0,0.0,0.0,0.0,0.0,0.0,0.0,0.0,0.0,0.0,0.0,0.0
25,60.06504397712388,0.0,0.0,0.0,4.7559709197048505,149.19334598999512,0.0,0.0,0.0,0.0,0.0,0.0,0.0,87.59335497075381,0.0,37.84334457976138,0.0,62.759964837077405,0.0,0.0,0.0,0.0,0.0,0.0,0.0,0.0
