,G1050,G1407,G500,G404,G672,G1342,G55,G525,G48,G1035,G7,G703
0,0.0,0.0,0.0,0.0,443.7664578633762,0.0,74.80722201980689,0.0,0.0,0.0,0.0,0.0
1,0.0,0.0,0.0,0.0,0.0,0.0,0.0,8.478657574775752,0.0,0.0,0.0,0.0
2,0.0,0.0,0.0,0.0,118.06068276179622,0.0,187.92896372434006,0.0,0.0,0.0,0.0,0.0
3,0.0,0.0,0.0,0.0,0.0,0.0,0.0,0.0,0.07811214364892294,0.0,0.0,3.2579890216211425
4,0.0,0.0,0.0,0.0,0.0,0.0,0.0,0.0,0.0,0.0,0.0,0.0
5,0.0,2.959449274749659,0.0,0.0,0.0,0.0,0.0,0.0,0.0,0.0,6.170218870275221,0.0
6,0.0,0.0,0.0,0.0,0.0,0.0,0.0,0.0,0.0,0.0,0.0,0.0
7,0.0,0.0,0.0,0.0,0.0,0.0,0.0,0.0,0.0,0.0,0.0,0.0
8,0.0,0.0,18.019104727442937,0.0,0.0,0.0,0.0,0.0,0.0,0.0,0.0,0.0
9,0.0,0.0,0.0,0.0,0.0,0.0,0.0,0.0,9.853821964079089,0.0,0.0,0.0
10,0.0,0.0,0.0,0.0,0.0,0.0,0.0,0.0,0.0,12.495390546051112,0.0,0.0
11,0.0,0.0,0.0,0.0,15.051741234679866,0.0,0.0,8.130956440206774,0.0,15.80491767741114,0.0,0.0
