,G191,G289,G1348,G246,G1147,G652,G17,G123,G33,G1297,G987,G1615,G260,G1335,G88,G927,G1101,G962
0,0.0,140.83750962854992,0.0,0.0,0.0,0.0,0.0,0.0,0.0,0.0,0.0,0.0,0.0,0.0,0.0,0.0,0.0,178.37416253826223
1,0.0,0.0,12.29092307838664,0.0,0.0,0.0,0.0,0.0,0.0,0.0,0.0,0.0,0.0,0.0,0.0,0.0,0.0,510.86902826350024
2,0.0,0.0,0.0,21.409994650514818,0.0,0.0,0.0,0.0,0.0,0.0,0.0,0.0,0.0,0.0,0.0,0.0,0.0,297.43409635337184
3,0.0,0.0,0.0,0.0,0.0,0.0,0.0,0.0,0.0,0.0,0.0,0.0,0.0,0.0,0.0,0.0,0.0,0.0
4,0.0,0.0,0.0,0.0,0.0,0.0,0.0,0.0,0.0,0.0,0.0,0.0,0.0,0.0,14.170784464010467,23.90758030180632,142.4324888480396,3.964783174059903
5,0.0,0.0,0.0,0.0,0.0,0.0,0.0,0.0,0.0,0.0,7.17177389899598,4.362613828955546,0.0,0.0,8.51149032298963,0.0,0.0,7.515209108227737
6,0.0,0.0,0.0,0.0,3.4618542841981252,0.0,0.0,0.0,0.0,0.0,0.0,0.0,0.0,0.0,0.0,0.0,0.0,43.61607221186523
7,124.49143103580991,0.0,0.0,0.0,0.0,0.0,0.0,0.0,0.0,0.0,0.0,0.0,0.0,0.0,0.0,0.0,0.0,0.0
8,0.0,0.0,0.0,0.0,0.0,0.0,540.064174237586,33.454330640973694,0.0,0.0,0.0,0.0,0.0,0.0,0.0,0.0,0.0,0.0
9,0.0,0.0,0.0,68.09442289167328,0.0,0.0,0.0,0.0,0.0,0.0,0.0,0.0,0.0,66.02558329903741,0.0,0.0,0.0,0.0
10,0.0,0.0,0.0,0.0,9.567465598329363,0.0,0.0,0.0,0.0,0.0,0.0,0.0,0.0,0.0,18.03801332643252,0.0,153.5951299471285,0.0
11,0.0,0.0,0.0,0.0,0.0,0.0,0.0,0.0,0.0,0.0,0.0,0.0,0.0,0.0,0.0,0.0,0.0,0.0
12,0.0,0.0,0.0,0.0,0.0,240.95356400798028,18.353773047434515,0.0,0.0,0.0,0.0,0.0,0.0,0.0,0.0,0.0,0.0,0.0
13,0.0,0.0,0.0,24.4277719742945,0.0,0.0,0.0,0.0,0.0,0.0,56.84554952530107,0.0,0.0,0.0,0.0,0.0,74.34691594579635,0.0
14,67.14567814842212,0.0,0.0,0.0,0.0,0.0,0.0,0.0,0.0,0.0,0.0,0.0,0.0,0.0,0.0,0.0,0.0,0.0
15,0.0,0.0,0.0,0.0,0.0,0.0,0.0,52.47246959944869,0.0,0.0,0.0,0.0,0.0,0.0,0.0,0.0,0.0,9.290084197241868
16,0.0,0.0,0.0,0.0,0.0,0.0,0.0,0.0,0.0,0.0,0.0,3.241340331243464,0.0,0.0,462.641023018934,23.690995859210943,0.0,0.0
17,0.0,0.0,0.0,451.6778496217962,0.0,0.0,0.0,0.0,0.0,0.0,0.0,106.62596840295464,0.0,0.0,0.0,0.0,0.0,0.0
