,G128,G526,G671,G1369,G500,G31
0,0.0,0.0,0.0,0.0,0.0,0.0
1,-7.72596338222138,0.0,7.47207958178069,0.0,0.0,4.16265643962879
2,308.41147972955787,0.0,0.0,0.0,0.0,0.0
3,0.0,0.0,0.0,0.0,0.0,23.35669117572752
4,0.0,0.0,0.0,0.0,0.0,17.39921336606858
5,120.16617935635122,0.0,0.0,0.0,0.0,0.0
