,G155,G352,G1064,G943,G6,G221,G1557,G170,G589,G1019,G52,G336,G326,G231,G245,G1494,G479,G452,G517,G351
0,0.0,0.0,0.0,0.0,0.0,0.0,0.0,0.0,0.0,0.0,0.0,0.0,0.0,0.0,0.0,0.0,0.0,0.0,0.0,309.9429509996271
1,0.0,0.0,0.0,0.0,0.0,0.0,0.0,0.0,0.0,0.0,0.0,0.0,0.0,0.0,0.0,0.0,0.0,0.0,0.0,166.44232545194745
2,260.32135126555977,0.0,0.0,0.0,0.0,0.0,0.0,0.0,0.0,0.0,0.0,0.0,0.0,0.0,0.0,0.0,0.0,0.0,0.0,0.0
3,33.15307466481863,0.0,0.0,0.0,0.0,0.0,0.0,3.2502353996778766,0.0,0.0,0.0,0.0,0.0,0.0,0.0,0.0,0.0,19.0094219547168,0.0,0.0
4,0.0,0.0,0.0,0.0,0.0,116.68871677213838,0.0,0.0,12.147473683836324,0.0,0.0,0.0,0.0,0.0,0.0,0.0,0.0,0.0,12.429503665265202,0.0
5,135.76007620714245,0.0,0.0,0.0,0.0,0.0,0.0,0.0,0.0,0.0,0.0,0.0,0.0,0.0,0.0,0.0,0.0,0.0,0.0,0.0
6,0.0,0.0,0.0,0.0,0.0,0.0,0.0,0.0,0.0,0.0,0.0,0.0,0.0,0.0,0.0,0.0,0.0,0.0,0.0,72.63379177752813
7,0.0,0.0,0.0,0.0,0.0,183.3471300479223,0.0,0.0,0.0,0.0,0.0,0.0,0.0,0.0,0.0,0.0,0.0,0.0,0.0,0.32010630450713506
8,0.0,0.0,0.0,0.0,0.0,764.7978670309494,0.0,0.0,0.0,0.0,0.0,0.0,0.0,0.0,0.0,0.0,0.0,0.0,0.0,0.0
9,0.0,34.11513020985194,0.0,0.0,0.0,109.74294846600515,0.0,0.0,0.0,0.0,0.0,0.0,0.0,0.0,6.926142224686373,0.0,0.0,0.0,0.0,0.0
10,0.0,0.0,0.0,26.76760896753467,0.0,0.0,0.0,0.0,0.0,8.522802810906796,0.0,0.0,6.653927309903793,0.0,0.0,0.0,0.0,0.0,0.0,0.0
11,0.0,0.0,0.0,0.0,0.0,0.0,0.0,0.0,0.0,0.0,0.0,0.0,4.225102706695452,0.0,0.0,0.0,0.0,0.0,0.0,26.718550588705057
12,0.38579328474315844,0.0,0.0,0.0,0.0,0.0,29.68651210498092,0.0,0.0,0.0,0.0,0.0,0.0,0.0,0.0,0.0,0.0,0.0,4.442290845930984,0.0
13,0.0,0.0,0.0,0.0,0.0,0.0,0.0,0.0,0.0,0.0,0.0,0.0,0.0,0.0,0.0,0.0,0.0,0.0,0.0,0.0
14,0.0,0.0,0.0,0.0,0.0,0.0,0.0,0.0,0.0,0.0,0.0,0.0,0.0,0.0,0.0,0.0,0.0,0.0,0.0,0.0
15,0.0,0.0,0.0,0.0,0.0,0.0,0.0,0.0,0.0,0.0,0.0,0.0,452.37418361412574,0.0,0.0,0.0,0.0,0.0,0.0,0.0
16,0.0,0.0,0.0,0.0,0.0,0.0,0.0,0.0,0.0,0.0,360.1806531118755,0.0,0.0,0.0,0.0,0.0,0.0,0.0,0.0,0.0
17,0.0,0.0,0.0,0.0,0.0,0.0,0.0,389.9806415177882,0.0,0.0,0.0,0.0,0.0,0.0,7.7145428692383575,0.0,0.0,0.0,0.0,0.0
18,0.0,0.0,0.0,0.0,0.0,185.2495240630601,67.12146287117412,0.0,97.79380124850377,0.0,0.0,0.0,0.0,0.0,0.0,0.0,0.0,0.0,0.0,0.0
19,0.0,0.0,0.0,0.0,0.0,0.0,0.0,0.0,0.0,0.0,0.0,0.0,0.0,68.06405018019859,67.75167056218743,0.0,0.0,0.0,0.0,0.0
