,G115,G665,G378,G1128,G1173,G1638,G1410,G1574,G374,G598,G1340,G297,G373,G1137,G1438,G1152,G349,G709,G1027,G1360,G825,G1199,G641,G1255,G1318,G640,G407
0,0.0,0.0,91.93911441113323,0.0,0.0,0.0,0.0,0.0,0.0,5.266670497638643,0.0,0.0,0.0,0.0,0.0,0.0,0.0,0.0,0.0,0.0,0.0,0.0,0.0,0.0,0.0,0.0,180.48937656447606
1,0.0,0.0,0.0,127.89360591911782,0.0,150.5610881441612,0.0,0.0,0.0,0.0,0.0,0.0,0.0,0.0,6.242313822147935,0.0,0.0,0.0,0.0,0.0,0.0,0.0,0.0,0.0,0.0,0.0,0.0
2,0.0,121.51368491049516,0.0,11.594891802778875,0.0,0.0,0.0,0.0,0.0,0.0,0.0,0.0,0.0,0.0,0.0,0.0,0.0,0.0,0.0,0.0,0.0,0.0,0.0,0.0,0.0,0.0,19.16503477757624
3,0.0,0.0,0.0,0.0,0.0,351.18793240683954,0.0,0.0,0.0,0.0,0.0,0.0,0.0,0.0,206.82371619747983,0.0,0.0,0.0,0.0,0.0,0.0,0.0,0.0,0.0,0.0,0.0,0.0
4,0.0,0.0,106.30952824212545,0.0,0.0,290.79045861633267,0.0,0.0,0.0,0.0,0.0,0.0,0.0,0.0,0.0,0.0,0.0,0.0,0.0,0.0,0.0,0.0,0.0,0.0,0.0,0.0,0.0
5,0.0,0.0,0.0,0.0,0.0,0.0,0.0,0.0,0.0,0.0,0.0,0.0,0.0,0.0,0.0,0.0,0.0,0.0,0.0,0.0,0.0,296.6552479389193,0.0,0.0,0.0,0.0,0.0
6,0.0,57.7660540468828,0.0,0.0,0.0,33.47631198152112,0.0,0.0,0.0,0.0,0.0,0.0,0.0,0.0,0.0,0.0,40.82274502225664,0.0,0.0,0.0,0.0,0.0,0.0,0.0,0.0,0.0,0.0
7,0.0,0.0,0.0,0.0,0.0,0.0,0.0,0.0,0.0,0.0,0.0,0.0,0.0,0.0,0.0,0.0,0.0,0.0,0.0,0.0,0.0,0.0,52.82661049980743,0.0,0.0,0.0,111.83573904579816
8,42.982798628374894,39.720964700597506,0.0,0.0,0.0,235.51385423026477,0.0,0.0,0.0,0.0,0.0,0.0,0.0,0.0,87.67989398846703,0.0,0.0,0.0,0.0,0.0,0.0,0.0,0.0,0.0,0.0,0.0,0.0
9,0.0,0.0,0.0,0.0,0.0,182.15500455984738,0.0,0.0,0.0,0.0,0.0,0.0,0.0,0.0,51.128710168969064,0.0,0.0,0.0,0.0,0.0,0.0,0.0,0.0,0.0,0.0,0.0,0.0
10,86.90562472721649,0.0,0.0,0.0,0.0,0.0,0.0,0.0,0.0,0.0,0.0,0.0,0.0,79.04825013979962,0.0,0.0,0.0,0.0,0.0,0.0,0.0,0.0,0.0,0.0,0.0,0.0,0.0
11,4.604692994032575,15.845549832179131,0.0,0.0,0.0,0.0,0.0,0.0,0.0,0.0,0.0,0.0,0.0,0.0,0.0,0.0,0.0,0.0,0.0,0.0,0.0,0.0,0.0,0.0,0.0,0.0,0.0
12,0.0,0.0,0.0,14.118018990638575,0.0,0.0,0.0,0.0,0.0,0.0,0.0,2.718223872255294,0.0,0.0,21.756259355818656,0.0,0.0,0.0,0.0,0.0,0.0,0.0,0.0,0.0,0.0,0.0,0.0
13,0.0,0.0,0.0,0.0,0.0,212.13759283694708,0.0,0.0,0.0,0.0,0.0,0.0,0.0,0.0,0.0,0.0,0.0,62.07459192834858,0.0,0.0,0.0,0.0,0.0,0.0,0.0,0.0,0.0
14,0.0,0.0,0.0,0.0,0.0,0.0,0.0,0.0,0.0,0.0,0.0,0.0,0.0,0.0,0.0,0.0,0.0,0.0,0.0,0.0,0.0,0.0,0.0,0.0,0.0,0.0,0.0
15,0.0,0.0,0.0,0.0,0.0,75.96539777027056,0.0,0.0,124.50328060979018,0.0,0.0,0.0,0.0,0.0,0.0,0.0,0.0,0.0,0.0,0.0,0.0,0.0,0.0,0.0,0.0,0.0,0.0
16,0.0,0.0,0.0,0.0,0.0,0.0,0.0,0.0,87.3184939046746,0.0,0.0,0.0,0.0,0.0,0.0,96.38334575445288,0.0,0.0,0.0,20.92677765579583,0.0,0.0,0.0,0.0,0.0,0.0,0.0
17,0.0,0.0,0.2511643811453723,0.0,0.0,0.0,0.0,0.0,5.281844499956605,0.0,0.0,0.0,0.0,0.0,0.0,0.0,0.0,0.0,0.0,0.0,0.0,0.0,0.0,0.0,51.18135051248282,0.0,0.0
18,0.0,0.0,0.0,0.0,0.0,0.0,0.0,0.0,0.0,0.0,0.0,0.0,0.0,0.0,45.784323140741435,0.0,40.62107460060224,0.0,0.0,0.0,0.0,0.0,0.0,0.0,0.0,0.0,0.0
19,0.0,0.0,0.0,0.0,0.0,0.0,0.0,0.0,203.71173863863578,33.7535160060811,0.0,0.0,0.0,0.0,0.0,0.0,0.0,0.0,0.0,0.0,0.0,0.0,0.0,0.0,0.0,0.0,0.0
20,0.0,0.0,0.0,0.0,0.0,0.0,0.0,0.0,0.0,0.0,0.0,0.0,0.0,0.0,0.0,0.0,0.0,0.0,0.0,0.0,0.0,0.0,0.0,0.0,0.0,0.0,67.61908577151189
21,0.0,0.0,0.0,0.0,0.0,0.0,0.0,0.0,0.0,0.0,0.0,0.0,0.0,0.0,0.0,0.0,0.0,0.0,0.0,0.0,0.0,0.0,0.0,0.0,0.0,0.0,0.0
22,0.0,0.0,0.0,0.0,0.0,0.0,0.0,0.0,6.317888809954638,1.099100838578579,0.0,0.0,0.0,0.0,0.0,0.0,0.0,0.0,0.0,0.0,0.0,0.0,0.0,37.73831032103408,127.04399005914956,0.0,0.0
23,70.26668217916949,0.0,0.0,0.0,0.0,0.0,0.0,0.0,0.0,0.0,0.0,0.0,0.0,0.0,0.0,0.0,0.0,0.0,0.0,0.0,0.0,0.0,0.0,0.0,0.0,0.0,0.0
24,0.0,0.0,0.0,0.0,0.0,0.0,0.0,0.0,10.461311368057068,0.0,0.0,0.0,0.0,0.0,0.0,22.40721286720327,47.76955955847188,0.0,0.0,0.0,0.0,0.0,0.0,0.0,0.0,0.0,0.0
25,8.173841508681562,0.0,0.0,0.0,0.0,0.0,0.0,0.0,0.0,0.0,0.0,0.0,0.0,0.0,0.0,0.0,0.0,0.0,22.699316941363577,0.0,0.0,0.0,0.0,0.0,0.0,0.0,0.0
26,0.0,128.33525095125106,0.0,33.37185035581979,0.0,0.0,0.0,0.0,0.0,0.0,0.0,0.0,0.0,0.0,0.0,0.0,0.0,0.0,0.0,0.0,0.0,0.0,0.0,0.0,0.0,0.0,0.0
