,G990,G1420,G71,G936,G756,G357,G550,G460
0,0.0,0.0,0.0,0.0,106.05073732477513,0.0,42.94118425856277,0.0
1,0.0,0.0,72.10108526927615,0.0,0.0,0.0,0.0,114.7171000340727
2,163.23208183654424,0.0,0.0,7.697651341295568,8.029058492909371,0.0,0.0,0.0
3,173.47319093742726,0.0,0.0,0.0,0.0,0.0,0.0,0.0
4,0.0,0.0,0.0,0.0,0.0,0.0,0.0,0.0
5,0.0,0.0,0.0,0.0,0.0,0.0,0.0,25.868782210573954
6,0.0,0.0,0.0,0.0,0.0,0.0,0.0,0.0
7,178.1669445047096,0.0,30.727103065385563,0.0,0.0,0.0,0.0,0.0
